<?xml version="1.0" encoding="utf-8"?>
<!DOCTYPE eagle SYSTEM "eagle.dtd">
<eagle version="6.6.0">
<drawing>
<settings>
<setting alwaysvectorfont="no"/>
<setting verticaltext="up"/>
</settings>
<grid distance="0.025" unitdist="inch" unit="inch" style="lines" multiple="1" display="yes" altdistance="0.0125" altunitdist="inch" altunit="inch"/>
<layers>
<layer number="1" name="Top" color="4" fill="1" visible="yes" active="yes"/>
<layer number="2" name="Route2" color="1" fill="3" visible="no" active="no"/>
<layer number="3" name="Route3" color="4" fill="3" visible="no" active="no"/>
<layer number="4" name="Route4" color="1" fill="4" visible="no" active="no"/>
<layer number="5" name="Route5" color="4" fill="4" visible="no" active="no"/>
<layer number="6" name="Route6" color="1" fill="8" visible="no" active="no"/>
<layer number="7" name="Route7" color="4" fill="8" visible="no" active="no"/>
<layer number="8" name="Route8" color="1" fill="2" visible="no" active="no"/>
<layer number="9" name="Route9" color="4" fill="2" visible="no" active="no"/>
<layer number="10" name="Route10" color="1" fill="7" visible="no" active="no"/>
<layer number="11" name="Route11" color="4" fill="7" visible="no" active="no"/>
<layer number="12" name="Route12" color="1" fill="5" visible="no" active="no"/>
<layer number="13" name="Route13" color="4" fill="5" visible="no" active="no"/>
<layer number="14" name="Route14" color="1" fill="6" visible="no" active="no"/>
<layer number="15" name="Route15" color="4" fill="6" visible="no" active="no"/>
<layer number="16" name="Bottom" color="1" fill="1" visible="yes" active="yes"/>
<layer number="17" name="Pads" color="2" fill="1" visible="yes" active="yes"/>
<layer number="18" name="Vias" color="2" fill="1" visible="yes" active="yes"/>
<layer number="19" name="Unrouted" color="6" fill="1" visible="yes" active="yes"/>
<layer number="20" name="Dimension" color="15" fill="1" visible="yes" active="yes"/>
<layer number="21" name="tPlace" color="7" fill="1" visible="yes" active="yes"/>
<layer number="22" name="bPlace" color="7" fill="1" visible="yes" active="yes"/>
<layer number="23" name="tOrigins" color="15" fill="1" visible="yes" active="yes"/>
<layer number="24" name="bOrigins" color="15" fill="1" visible="yes" active="yes"/>
<layer number="25" name="tNames" color="7" fill="1" visible="no" active="yes"/>
<layer number="26" name="bNames" color="7" fill="1" visible="no" active="yes"/>
<layer number="27" name="tValues" color="7" fill="1" visible="no" active="yes"/>
<layer number="28" name="bValues" color="7" fill="1" visible="no" active="yes"/>
<layer number="29" name="tStop" color="7" fill="3" visible="no" active="yes"/>
<layer number="30" name="bStop" color="7" fill="6" visible="no" active="yes"/>
<layer number="31" name="tCream" color="7" fill="4" visible="no" active="yes"/>
<layer number="32" name="bCream" color="7" fill="5" visible="no" active="yes"/>
<layer number="33" name="tFinish" color="6" fill="3" visible="no" active="yes"/>
<layer number="34" name="bFinish" color="6" fill="6" visible="no" active="yes"/>
<layer number="35" name="tGlue" color="7" fill="4" visible="no" active="yes"/>
<layer number="36" name="bGlue" color="7" fill="5" visible="no" active="yes"/>
<layer number="37" name="tTest" color="7" fill="1" visible="no" active="yes"/>
<layer number="38" name="bTest" color="7" fill="1" visible="no" active="yes"/>
<layer number="39" name="tKeepout" color="4" fill="11" visible="no" active="yes"/>
<layer number="40" name="bKeepout" color="1" fill="11" visible="no" active="yes"/>
<layer number="41" name="tRestrict" color="4" fill="10" visible="no" active="yes"/>
<layer number="42" name="bRestrict" color="1" fill="10" visible="no" active="yes"/>
<layer number="43" name="vRestrict" color="2" fill="10" visible="no" active="yes"/>
<layer number="44" name="Drills" color="7" fill="1" visible="yes" active="yes"/>
<layer number="45" name="Holes" color="7" fill="1" visible="yes" active="yes"/>
<layer number="46" name="Milling" color="3" fill="1" visible="yes" active="yes"/>
<layer number="47" name="Measures" color="7" fill="1" visible="yes" active="yes"/>
<layer number="48" name="Document" color="7" fill="1" visible="yes" active="yes"/>
<layer number="49" name="Reference" color="7" fill="1" visible="yes" active="yes"/>
<layer number="50" name="dxf" color="7" fill="1" visible="no" active="no"/>
<layer number="51" name="tDocu" color="7" fill="1" visible="yes" active="yes"/>
<layer number="52" name="bDocu" color="7" fill="1" visible="yes" active="yes"/>
<layer number="53" name="tGND_GNDA" color="7" fill="9" visible="no" active="no"/>
<layer number="54" name="bGND_GNDA" color="1" fill="9" visible="no" active="no"/>
<layer number="56" name="wert" color="7" fill="1" visible="no" active="no"/>
<layer number="57" name="tCAD" color="7" fill="1" visible="no" active="no"/>
<layer number="59" name="Invisible" color="7" fill="1" visible="no" active="no"/>
<layer number="60" name="bCarbon" color="7" fill="1" visible="no" active="no"/>
<layer number="61" name="stand" color="7" fill="1" visible="no" active="no"/>
<layer number="90" name="Modules" color="7" fill="1" visible="no" active="no"/>
<layer number="91" name="Nets" color="2" fill="1" visible="no" active="no"/>
<layer number="92" name="Busses" color="1" fill="1" visible="no" active="no"/>
<layer number="93" name="Pins" color="2" fill="1" visible="no" active="no"/>
<layer number="94" name="Symbols" color="4" fill="1" visible="no" active="no"/>
<layer number="95" name="Names" color="7" fill="1" visible="no" active="no"/>
<layer number="96" name="Values" color="7" fill="1" visible="no" active="no"/>
<layer number="97" name="Info" color="7" fill="1" visible="no" active="no"/>
<layer number="98" name="Guide" color="6" fill="1" visible="no" active="no"/>
<layer number="99" name="Invisibles" color="7" fill="1" visible="no" active="no"/>
<layer number="100" name="Muster" color="7" fill="1" visible="no" active="no"/>
<layer number="101" name="Patch_Top" color="12" fill="4" visible="yes" active="yes"/>
<layer number="102" name="Vscore" color="7" fill="1" visible="yes" active="yes"/>
<layer number="103" name="origins2" color="7" fill="1" visible="yes" active="yes"/>
<layer number="104" name="Name" color="7" fill="1" visible="no" active="yes"/>
<layer number="105" name="fp5" color="7" fill="1" visible="no" active="yes"/>
<layer number="106" name="fp6" color="7" fill="1" visible="no" active="yes"/>
<layer number="107" name="fp7" color="7" fill="1" visible="no" active="yes"/>
<layer number="108" name="fp8" color="7" fill="1" visible="no" active="yes"/>
<layer number="109" name="fp9" color="7" fill="1" visible="no" active="yes"/>
<layer number="110" name="fp0" color="7" fill="1" visible="no" active="yes"/>
<layer number="111" name="Text" color="7" fill="1" visible="no" active="yes"/>
<layer number="112" name="2Restrict" color="7" fill="1" visible="no" active="yes"/>
<layer number="113" name="IDFDebug" color="7" fill="1" visible="no" active="yes"/>
<layer number="116" name="Patch_BOT" color="9" fill="4" visible="no" active="yes"/>
<layer number="118" name="Rect_Pads" color="7" fill="1" visible="no" active="yes"/>
<layer number="121" name="_tsilk" color="7" fill="1" visible="no" active="yes"/>
<layer number="122" name="_bsilk" color="7" fill="1" visible="no" active="yes"/>
<layer number="123" name="tTestmark" color="7" fill="1" visible="no" active="yes"/>
<layer number="124" name="bTestmark" color="7" fill="1" visible="no" active="yes"/>
<layer number="125" name="_tNames" color="7" fill="1" visible="no" active="yes"/>
<layer number="126" name="_bNames" color="7" fill="1" visible="no" active="yes"/>
<layer number="127" name="_tValues" color="7" fill="1" visible="no" active="yes"/>
<layer number="128" name="_bValues" color="7" fill="1" visible="no" active="yes"/>
<layer number="129" name="Mask" color="7" fill="1" visible="no" active="yes"/>
<layer number="130" name="bLogo" color="7" fill="1" visible="no" active="yes"/>
<layer number="131" name="tText" color="7" fill="1" visible="no" active="yes"/>
<layer number="132" name="bMask" color="7" fill="1" visible="no" active="yes"/>
<layer number="144" name="DrillLegend" color="7" fill="1" visible="no" active="yes"/>
<layer number="150" name="Notes" color="7" fill="1" visible="no" active="yes"/>
<layer number="151" name="HeatSink" color="7" fill="1" visible="no" active="yes"/>
<layer number="152" name="_bDocu" color="7" fill="1" visible="no" active="yes"/>
<layer number="153" name="FabDoc1" color="7" fill="1" visible="no" active="yes"/>
<layer number="154" name="FabDoc2" color="7" fill="1" visible="no" active="yes"/>
<layer number="155" name="FabDoc3" color="7" fill="1" visible="no" active="yes"/>
<layer number="199" name="Contour" color="7" fill="1" visible="no" active="yes"/>
<layer number="200" name="200bmp" color="1" fill="10" visible="no" active="no"/>
<layer number="201" name="201bmp" color="2" fill="1" visible="no" active="no"/>
<layer number="202" name="202bmp" color="3" fill="1" visible="no" active="no"/>
<layer number="203" name="203bmp" color="4" fill="10" visible="no" active="yes"/>
<layer number="204" name="204bmp" color="5" fill="10" visible="no" active="yes"/>
<layer number="205" name="205bmp" color="6" fill="10" visible="no" active="yes"/>
<layer number="206" name="206bmp" color="7" fill="10" visible="no" active="yes"/>
<layer number="207" name="207bmp" color="8" fill="10" visible="no" active="yes"/>
<layer number="208" name="208bmp" color="9" fill="10" visible="no" active="yes"/>
<layer number="209" name="209bmp" color="7" fill="1" visible="no" active="yes"/>
<layer number="210" name="210bmp" color="7" fill="1" visible="no" active="yes"/>
<layer number="211" name="211bmp" color="7" fill="1" visible="no" active="yes"/>
<layer number="212" name="212bmp" color="7" fill="1" visible="no" active="yes"/>
<layer number="213" name="213bmp" color="7" fill="1" visible="no" active="yes"/>
<layer number="214" name="214bmp" color="7" fill="1" visible="no" active="yes"/>
<layer number="215" name="215bmp" color="7" fill="1" visible="no" active="yes"/>
<layer number="216" name="216bmp" color="7" fill="1" visible="no" active="yes"/>
<layer number="217" name="217bmp" color="18" fill="1" visible="no" active="no"/>
<layer number="218" name="218bmp" color="19" fill="1" visible="no" active="no"/>
<layer number="219" name="219bmp" color="20" fill="1" visible="no" active="no"/>
<layer number="220" name="220bmp" color="21" fill="1" visible="no" active="no"/>
<layer number="221" name="221bmp" color="22" fill="1" visible="no" active="no"/>
<layer number="222" name="222bmp" color="23" fill="1" visible="no" active="no"/>
<layer number="223" name="223bmp" color="24" fill="1" visible="no" active="no"/>
<layer number="224" name="224bmp" color="25" fill="1" visible="no" active="no"/>
<layer number="225" name="225bmp" color="7" fill="1" visible="no" active="yes"/>
<layer number="226" name="226bmp" color="7" fill="1" visible="no" active="yes"/>
<layer number="227" name="227bmp" color="7" fill="1" visible="no" active="yes"/>
<layer number="228" name="228bmp" color="7" fill="1" visible="no" active="yes"/>
<layer number="229" name="229bmp" color="7" fill="1" visible="no" active="yes"/>
<layer number="230" name="230bmp" color="7" fill="1" visible="no" active="yes"/>
<layer number="231" name="Eagle3D_PG1" color="14" fill="1" visible="no" active="yes"/>
<layer number="232" name="Eagle3D_PG2" color="14" fill="2" visible="no" active="yes"/>
<layer number="233" name="Eagle3D_PG3" color="14" fill="4" visible="no" active="yes"/>
<layer number="248" name="Housing" color="7" fill="1" visible="no" active="yes"/>
<layer number="249" name="Edge" color="7" fill="1" visible="no" active="yes"/>
<layer number="250" name="Descript" color="3" fill="1" visible="no" active="no"/>
<layer number="251" name="SMDround" color="12" fill="11" visible="no" active="no"/>
<layer number="254" name="cooling" color="7" fill="1" visible="no" active="yes"/>
<layer number="255" name="routoute" color="7" fill="1" visible="no" active="yes"/>
</layers>
<board>
<plain>
<wire x1="0" y1="0" x2="59.69" y2="0" width="0" layer="20"/>
<wire x1="59.69" y1="0" x2="59.69" y2="96.52" width="0" layer="20"/>
<wire x1="59.69" y1="96.52" x2="0" y2="96.52" width="0" layer="20"/>
<wire x1="0" y1="96.52" x2="0" y2="0" width="0" layer="20"/>
<hole x="5.08" y="6.35" drill="4.366259375"/>
<hole x="6.35" y="90.17" drill="4.366259375"/>
<hole x="53.975" y="90.17" drill="4.366259375"/>
<hole x="53.34" y="6.35" drill="4.366259375"/>
</plain>
<libraries>
<library name="rlc-jqi">
<packages>
<package name="0603">
<description>0603 SMT Package</description>
<wire x1="-0.432" y1="-0.356" x2="0.432" y2="-0.356" width="0.1524" layer="51"/>
<wire x1="0.432" y1="0.356" x2="-0.432" y2="0.356" width="0.1524" layer="51"/>
<smd name="1" x="-0.85" y="0" dx="1" dy="1.1" layer="1"/>
<smd name="2" x="0.85" y="0" dx="1" dy="1.1" layer="1"/>
<text x="-1.905" y="1.27" size="0.889" layer="25">&gt;NAME</text>
<text x="-1.905" y="-1.905" size="0.889" layer="27">&gt;VALUE</text>
<rectangle x1="0.4318" y1="-0.4318" x2="0.8382" y2="0.4318" layer="51"/>
<rectangle x1="-0.8382" y1="-0.4318" x2="-0.4318" y2="0.4318" layer="51"/>
</package>
<package name="1206">
<description>1206 SMT Package</description>
<wire x1="0.9525" y1="-0.8128" x2="-0.9652" y2="-0.8128" width="0.1524" layer="51"/>
<wire x1="0.9525" y1="0.8128" x2="-0.9652" y2="0.8128" width="0.1524" layer="51"/>
<smd name="2" x="1.422" y="0" dx="1.6" dy="1.803" layer="1"/>
<smd name="1" x="-1.422" y="0" dx="1.6" dy="1.803" layer="1"/>
<text x="-2.54" y="1.905" size="0.889" layer="25">&gt;NAME</text>
<text x="-2.54" y="-2.54" size="0.889" layer="27">&gt;VALUE</text>
<rectangle x1="-1.6891" y1="-0.8763" x2="-0.9525" y2="0.8763" layer="51"/>
<rectangle x1="0.9525" y1="-0.8763" x2="1.6891" y2="0.8763" layer="51"/>
</package>
</packages>
</library>
<library name="diode">
<description>&lt;b&gt;Diodes&lt;/b&gt;&lt;p&gt;
Based on the following sources:
&lt;ul&gt;
&lt;li&gt;Motorola : www.onsemi.com
&lt;li&gt;Fairchild : www.fairchildsemi.com
&lt;li&gt;Philips : www.semiconductors.com
&lt;li&gt;Vishay : www.vishay.de
&lt;/ul&gt;
&lt;author&gt;Created by librarian@cadsoft.de&lt;/author&gt;</description>
<packages>
<package name="SOT23">
<description>&lt;B&gt;DIODE&lt;/B&gt;</description>
<wire x1="1.4224" y1="0.6604" x2="1.4224" y2="-0.6604" width="0.1524" layer="51"/>
<wire x1="1.4224" y1="-0.6604" x2="-1.4224" y2="-0.6604" width="0.1524" layer="51"/>
<wire x1="-1.4224" y1="-0.6604" x2="-1.4224" y2="0.6604" width="0.1524" layer="51"/>
<wire x1="-1.4224" y1="0.6604" x2="1.4224" y2="0.6604" width="0.1524" layer="51"/>
<wire x1="-1.4224" y1="-0.1524" x2="-1.4224" y2="0.6604" width="0.1524" layer="21"/>
<wire x1="-1.4224" y1="0.6604" x2="-0.8636" y2="0.6604" width="0.1524" layer="21"/>
<wire x1="1.4224" y1="0.6604" x2="1.4224" y2="-0.1524" width="0.1524" layer="21"/>
<wire x1="0.8636" y1="0.6604" x2="1.4224" y2="0.6604" width="0.1524" layer="21"/>
<smd name="3" x="0" y="1.1" dx="1" dy="1.4" layer="1"/>
<smd name="2" x="0.95" y="-1.1" dx="1" dy="1.4" layer="1"/>
<smd name="1" x="-0.95" y="-1.1" dx="1" dy="1.4" layer="1"/>
<text x="-1.905" y="1.905" size="1.27" layer="25">&gt;NAME</text>
<text x="-1.905" y="-3.175" size="1.27" layer="27">&gt;VALUE</text>
<rectangle x1="-0.2286" y1="0.7112" x2="0.2286" y2="1.2954" layer="51"/>
<rectangle x1="0.7112" y1="-1.2954" x2="1.1684" y2="-0.7112" layer="51"/>
<rectangle x1="-1.1684" y1="-1.2954" x2="-0.7112" y2="-0.7112" layer="51"/>
</package>
<package name="SMB">
<description>&lt;B&gt;DIODE&lt;/B&gt;</description>
<wire x1="-2.2606" y1="1.905" x2="2.2606" y2="1.905" width="0.1016" layer="21"/>
<wire x1="-2.2606" y1="-1.905" x2="2.2606" y2="-1.905" width="0.1016" layer="21"/>
<wire x1="-2.2606" y1="-1.905" x2="-2.2606" y2="1.905" width="0.1016" layer="51"/>
<wire x1="2.2606" y1="-1.905" x2="2.2606" y2="1.905" width="0.1016" layer="51"/>
<wire x1="0.193" y1="1" x2="-0.83" y2="0" width="0.2032" layer="21"/>
<wire x1="-0.83" y1="0" x2="0.193" y2="-1" width="0.2032" layer="21"/>
<wire x1="0.193" y1="-1" x2="0.193" y2="1" width="0.2032" layer="21"/>
<smd name="C" x="-2.2" y="0" dx="2.4" dy="2.4" layer="1"/>
<smd name="A" x="2.2" y="0" dx="2.4" dy="2.4" layer="1"/>
<text x="-2.159" y="2.159" size="1.27" layer="25">&gt;NAME</text>
<text x="-2.159" y="-3.429" size="1.27" layer="27">&gt;VALUE</text>
<rectangle x1="-2.794" y1="-1.0922" x2="-2.2606" y2="1.0922" layer="51"/>
<rectangle x1="2.2606" y1="-1.0922" x2="2.794" y2="1.0922" layer="51"/>
<rectangle x1="-1.35" y1="-1.9" x2="-0.8" y2="1.9" layer="51"/>
</package>
</packages>
</library>
<library name="linear">
<description>&lt;b&gt;Linear Devices&lt;/b&gt;&lt;p&gt;
Operational amplifiers,  comparators, voltage regulators, ADCs, DACs, etc.&lt;p&gt;
&lt;author&gt;Created by librarian@cadsoft.de&lt;/author&gt;</description>
<packages>
<package name="DPACK_3">
<description>&lt;b&gt;DPAK&lt;/b&gt;&lt;p&gt;Style 3 (Motorola)</description>
<wire x1="3.2766" y1="3.8354" x2="3.277" y2="-2.159" width="0.2032" layer="21"/>
<wire x1="3.277" y1="-2.159" x2="-3.277" y2="-2.159" width="0.2032" layer="21"/>
<wire x1="-3.277" y1="-2.159" x2="-3.2766" y2="3.8354" width="0.2032" layer="21"/>
<wire x1="-3.277" y1="3.835" x2="3.2774" y2="3.8346" width="0.2032" layer="51"/>
<wire x1="-2.5654" y1="3.937" x2="-2.5654" y2="4.6482" width="0.2032" layer="51"/>
<wire x1="-2.5654" y1="4.6482" x2="-2.1082" y2="5.1054" width="0.2032" layer="51"/>
<wire x1="-2.1082" y1="5.1054" x2="2.1082" y2="5.1054" width="0.2032" layer="51"/>
<wire x1="2.1082" y1="5.1054" x2="2.5654" y2="4.6482" width="0.2032" layer="51"/>
<wire x1="2.5654" y1="4.6482" x2="2.5654" y2="3.937" width="0.2032" layer="51"/>
<wire x1="2.5654" y1="3.937" x2="-2.5654" y2="3.937" width="0.2032" layer="51"/>
<smd name="4" x="0" y="2.5" dx="5.4" dy="6.2" layer="1"/>
<smd name="1" x="-2.28" y="-4.8" dx="1" dy="1.6" layer="1"/>
<smd name="3" x="2.28" y="-4.8" dx="1" dy="1.6" layer="1"/>
<text x="-3.81" y="-2.54" size="1.27" layer="25" rot="R90">&gt;NAME</text>
<text x="5.08" y="-2.54" size="1.27" layer="27" rot="R90">&gt;VALUE</text>
<rectangle x1="-2.7178" y1="-5.1562" x2="-1.8542" y2="-2.2606" layer="51"/>
<rectangle x1="1.8542" y1="-5.1562" x2="2.7178" y2="-2.2606" layer="51"/>
<rectangle x1="-0.4318" y1="-3.0226" x2="0.4318" y2="-2.2606" layer="21"/>
<polygon width="0.1998" layer="51">
<vertex x="-2.5654" y="3.937"/>
<vertex x="-2.5654" y="4.6482"/>
<vertex x="-2.1082" y="5.1054"/>
<vertex x="2.1082" y="5.1054"/>
<vertex x="2.5654" y="4.6482"/>
<vertex x="2.5654" y="3.937"/>
</polygon>
</package>
</packages>
</library>
<library name="connector-jqi">
<packages>
<package name="BNC90">
<description>Right angle BNC. AMP_227161.</description>
<circle x="0" y="23.94" radius="1.26" width="0" layer="21"/>
<wire x1="-7.275" y1="-6.875" x2="7.275" y2="-6.875" width="0.2032" layer="21"/>
<wire x1="7.275" y1="-6.875" x2="7.275" y2="7.275" width="0.2032" layer="21"/>
<wire x1="7.275" y1="7.275" x2="-7.275" y2="7.275" width="0.2032" layer="21"/>
<wire x1="-7.275" y1="7.275" x2="-7.275" y2="-6.875" width="0.2032" layer="21"/>
<wire x1="-6.4" y1="7.375" x2="-6.4" y2="16.025" width="0.2032" layer="21"/>
<wire x1="-6.4" y1="16.025" x2="6.4" y2="16.025" width="0.2032" layer="21"/>
<wire x1="6.4" y1="16.025" x2="6.4" y2="7.35" width="0.2032" layer="21"/>
<wire x1="-4.9" y1="16.15" x2="-4.9" y2="28.475" width="0.2032" layer="21"/>
<wire x1="-4.9" y1="28.475" x2="4.9" y2="28.475" width="0.2032" layer="21"/>
<wire x1="4.9" y1="28.475" x2="4.9" y2="16.125" width="0.2032" layer="21"/>
<pad name="1" x="0" y="-5.08" drill="0.9" diameter="1.27" shape="long" rot="R90"/>
<pad name="2" x="-2.54" y="-5.08" drill="0.9" diameter="1.27" shape="long" rot="R90"/>
<pad name="ANCHOR1" x="-5.08" y="0" drill="2" diameter="2.032"/>
<pad name="ANCHOR2" x="5.08" y="0" drill="2" diameter="2.032"/>
<text x="-3.175" y="3.81" size="1.27" layer="25">&gt;NAME</text>
</package>
<package name="MA03-1">
<description>&lt;b&gt;PIN HEADER&lt;/b&gt;</description>
<wire x1="-3.175" y1="1.27" x2="-1.905" y2="1.27" width="0.1524" layer="21"/>
<wire x1="-1.905" y1="1.27" x2="-1.27" y2="0.635" width="0.1524" layer="21"/>
<wire x1="-1.27" y1="-0.635" x2="-1.905" y2="-1.27" width="0.1524" layer="21"/>
<wire x1="-1.27" y1="0.635" x2="-0.635" y2="1.27" width="0.1524" layer="21"/>
<wire x1="-0.635" y1="1.27" x2="0.635" y2="1.27" width="0.1524" layer="21"/>
<wire x1="0.635" y1="1.27" x2="1.27" y2="0.635" width="0.1524" layer="21"/>
<wire x1="1.27" y1="-0.635" x2="0.635" y2="-1.27" width="0.1524" layer="21"/>
<wire x1="0.635" y1="-1.27" x2="-0.635" y2="-1.27" width="0.1524" layer="21"/>
<wire x1="-0.635" y1="-1.27" x2="-1.27" y2="-0.635" width="0.1524" layer="21"/>
<wire x1="-3.81" y1="0.635" x2="-3.81" y2="-0.635" width="0.1524" layer="21"/>
<wire x1="-3.175" y1="1.27" x2="-3.81" y2="0.635" width="0.1524" layer="21"/>
<wire x1="-3.81" y1="-0.635" x2="-3.175" y2="-1.27" width="0.1524" layer="21"/>
<wire x1="-1.905" y1="-1.27" x2="-3.175" y2="-1.27" width="0.1524" layer="21"/>
<wire x1="1.27" y1="0.635" x2="1.905" y2="1.27" width="0.1524" layer="21"/>
<wire x1="1.905" y1="1.27" x2="3.175" y2="1.27" width="0.1524" layer="21"/>
<wire x1="3.175" y1="1.27" x2="3.81" y2="0.635" width="0.1524" layer="21"/>
<wire x1="3.81" y1="-0.635" x2="3.175" y2="-1.27" width="0.1524" layer="21"/>
<wire x1="3.175" y1="-1.27" x2="1.905" y2="-1.27" width="0.1524" layer="21"/>
<wire x1="1.905" y1="-1.27" x2="1.27" y2="-0.635" width="0.1524" layer="21"/>
<wire x1="3.81" y1="0.635" x2="3.81" y2="-0.635" width="0.1524" layer="21"/>
<pad name="1" x="-2.54" y="0" drill="1.016" shape="long" rot="R90"/>
<pad name="2" x="0" y="0" drill="1.016" shape="long" rot="R90"/>
<pad name="3" x="2.54" y="0" drill="1.016" shape="long" rot="R90"/>
<text x="-3.81" y="1.651" size="1.27" layer="25" ratio="10">&gt;NAME</text>
<text x="-5.08" y="-0.635" size="1.27" layer="21" ratio="10">1</text>
<text x="-3.81" y="-2.921" size="1.27" layer="27" ratio="10">&gt;VALUE</text>
<rectangle x1="-0.254" y1="-0.254" x2="0.254" y2="0.254" layer="51"/>
<rectangle x1="-2.794" y1="-0.254" x2="-2.286" y2="0.254" layer="51"/>
<rectangle x1="2.286" y1="-0.254" x2="2.794" y2="0.254" layer="51"/>
</package>
</packages>
</library>
<library name="opamp-jqi">
<packages>
<package name="SO08">
<description>SO08 Package.

body 3.9 mm/JEDEC MS-012AA</description>
<wire x1="3.9" y1="2.265" x2="3.9" y2="-3.535" width="0.1998" layer="39"/>
<wire x1="3.9" y1="-3.535" x2="-3.9" y2="-3.535" width="0.1998" layer="39"/>
<wire x1="-3.9" y1="-3.535" x2="-3.9" y2="2.265" width="0.1998" layer="39"/>
<wire x1="-3.9" y1="2.265" x2="3.9" y2="2.265" width="0.1998" layer="39"/>
<wire x1="1.9" y1="-3.035" x2="-1.4" y2="-3.035" width="0.2032" layer="51"/>
<wire x1="-1.4" y1="-3.035" x2="-1.9" y2="-3.035" width="0.2032" layer="51"/>
<wire x1="-1.9" y1="-3.035" x2="-1.9" y2="1.765" width="0.2032" layer="51"/>
<wire x1="-1.9" y1="1.765" x2="-1.4" y2="1.765" width="0.2032" layer="51"/>
<wire x1="-1.4" y1="1.765" x2="1.9" y2="1.765" width="0.2032" layer="51"/>
<wire x1="1.9" y1="1.765" x2="1.9" y2="-3.035" width="0.2032" layer="51"/>
<wire x1="-1.4" y1="-3.035" x2="-1.4" y2="1.765" width="0.2032" layer="51"/>
<smd name="2" x="-2.6" y="0" dx="0.6" dy="2.2" layer="1" rot="R270"/>
<smd name="7" x="2.6" y="0" dx="0.6" dy="2.2" layer="1" rot="R270"/>
<smd name="1" x="-2.6" y="1.27" dx="0.6" dy="2.2" layer="1" rot="R270"/>
<smd name="3" x="-2.6" y="-1.27" dx="0.6" dy="2.2" layer="1" rot="R270"/>
<smd name="4" x="-2.6" y="-2.54" dx="0.6" dy="2.2" layer="1" rot="R270"/>
<smd name="8" x="2.6" y="1.27" dx="0.6" dy="2.2" layer="1" rot="R270"/>
<smd name="6" x="2.6" y="-1.27" dx="0.6" dy="2.2" layer="1" rot="R270"/>
<smd name="5" x="2.6" y="-2.54" dx="0.6" dy="2.2" layer="1" rot="R270"/>
<text x="-1.905" y="2.54" size="1.27" layer="25">&gt;NAME</text>
<text x="-1.905" y="-5.08" size="1.27" layer="27">&gt;VALUE</text>
<rectangle x1="-2.79515" y1="0.71995" x2="-2.30495" y2="1.82005" layer="51" rot="R270"/>
<rectangle x1="-2.79515" y1="-0.55005" x2="-2.30495" y2="0.55005" layer="51" rot="R270"/>
<rectangle x1="-2.79515" y1="-1.82005" x2="-2.30495" y2="-0.71995" layer="51" rot="R270"/>
<rectangle x1="-2.79515" y1="-3.09005" x2="-2.30495" y2="-1.98995" layer="51" rot="R270"/>
<rectangle x1="2.30495" y1="-3.09005" x2="2.79515" y2="-1.98995" layer="51" rot="R270"/>
<rectangle x1="2.30495" y1="-1.82005" x2="2.79515" y2="-0.71995" layer="51" rot="R270"/>
<rectangle x1="2.30495" y1="-0.55005" x2="2.79515" y2="0.55005" layer="51" rot="R270"/>
<rectangle x1="2.30495" y1="0.71995" x2="2.79515" y2="1.82005" layer="51" rot="R270"/>
<wire x1="-1.524" y1="1.778" x2="-1.27" y2="1.778" width="0.2032" layer="21"/>
<wire x1="-1.27" y1="1.778" x2="1.778" y2="1.778" width="0.2032" layer="21"/>
<wire x1="1.778" y1="1.778" x2="1.778" y2="-3.048" width="0.2032" layer="21"/>
<wire x1="1.778" y1="-3.048" x2="-1.27" y2="-3.048" width="0.2032" layer="21"/>
<wire x1="-1.524" y1="1.778" x2="-2.032" y2="1.778" width="0.2032" layer="21"/>
<wire x1="-2.032" y1="1.778" x2="-2.032" y2="-3.048" width="0.2032" layer="21"/>
<wire x1="-2.032" y1="-3.048" x2="-1.524" y2="-3.048" width="0.2032" layer="21"/>
<wire x1="-1.524" y1="-3.048" x2="-1.27" y2="-3.048" width="0.2032" layer="21"/>
<wire x1="-1.27" y1="-3.048" x2="-1.27" y2="1.778" width="0.2032" layer="21"/>
</package>
</packages>
</library>
<library name="brian_lbr">
<packages>
<package name="SOD-923">
<smd name="ANODE" x="-0.4445" y="0" dx="0.4064" dy="0.31241875" layer="1" rot="R180"/>
<smd name="CATHODE" x="0.4445" y="0" dx="0.4064" dy="0.31241875" layer="1" rot="R180"/>
<wire x1="-0.4445" y1="0.1905" x2="-0.4445" y2="-0.254" width="0.127" layer="21"/>
<wire x1="-0.4445" y1="-0.254" x2="0.254" y2="-0.254" width="0.127" layer="21"/>
<wire x1="0.254" y1="-0.254" x2="0.4445" y2="-0.254" width="0.127" layer="21"/>
<wire x1="0.4445" y1="-0.254" x2="0.4445" y2="0.254" width="0.127" layer="21"/>
<wire x1="0.4445" y1="0.254" x2="0.254" y2="0.254" width="0.127" layer="21"/>
<wire x1="0.254" y1="0.254" x2="-0.4445" y2="0.254" width="0.127" layer="21"/>
<wire x1="0.254" y1="0.254" x2="0.254" y2="-0.254" width="0.127" layer="21"/>
<wire x1="-0.0635" y1="0.1905" x2="0.127" y2="0" width="0.127" layer="21"/>
<wire x1="0.127" y1="0" x2="-0.0635" y2="-0.1905" width="0.127" layer="21"/>
<wire x1="-0.0635" y1="-0.1905" x2="-0.0635" y2="0.127" width="0.127" layer="21"/>
<text x="-0.508" y="0.508" size="1.27" layer="25">&gt;NAME</text>
<text x="-0.381" y="-1.397" size="1.27" layer="27">&gt;VALUE</text>
</package>
<package name="S3590">
<wire x1="-7.62" y1="-6.35" x2="6.985" y2="-6.35" width="0.127" layer="21"/>
<wire x1="6.985" y1="-6.35" x2="6.985" y2="6.35" width="0.127" layer="21"/>
<wire x1="6.985" y1="6.35" x2="-7.62" y2="6.35" width="0.127" layer="21"/>
<wire x1="-7.62" y1="6.35" x2="-7.62" y2="-6.35" width="0.127" layer="21"/>
<pad name="ANODE" x="5.715" y="2.54" drill="0.8"/>
<pad name="CATHODE" x="5.715" y="-2.54" drill="0.8"/>
<wire x1="0" y1="1.27" x2="1.27" y2="1.27" width="0.127" layer="21"/>
<wire x1="1.27" y1="1.27" x2="2.54" y2="1.27" width="0.127" layer="21"/>
<wire x1="2.54" y1="1.27" x2="1.27" y2="0" width="0.127" layer="21"/>
<wire x1="1.27" y1="0" x2="0" y2="1.27" width="0.127" layer="21"/>
<wire x1="0" y1="0" x2="1.27" y2="0" width="0.127" layer="21"/>
<wire x1="1.27" y1="0" x2="2.54" y2="0" width="0.127" layer="21"/>
<wire x1="1.27" y1="1.27" x2="1.27" y2="2.54" width="0.127" layer="21"/>
<wire x1="1.27" y1="0" x2="1.27" y2="-1.27" width="0.127" layer="21"/>
</package>
</packages>
</library>
<library name="jqi_passives">
<description>Library originally designed by Joshua Bienfang NIST.
Pad's sizes are slightly smaller than Eagle's default producing an artwork that is more compact.

Symbols are also compact, but still fit on a standard .1'' grid. 
Additional passive components (RLC and trimpots) can be added.</description>
<packages>
<package name="C_MLCC_1206">
<wire x1="-2.125" y1="1.125" x2="2.125" y2="1.125" width="0.05" layer="21"/>
<wire x1="2.125" y1="1.125" x2="2.125" y2="-1.125" width="0.05" layer="21"/>
<wire x1="2.125" y1="-1.125" x2="-2.125" y2="-1.125" width="0.05" layer="21"/>
<wire x1="-2.125" y1="-1.125" x2="-2.125" y2="1.125" width="0.05" layer="21"/>
<smd name="P$1" x="-1.55" y="0" dx="0.9" dy="1.6" layer="1"/>
<smd name="P$2" x="1.55" y="0" dx="0.9" dy="1.6" layer="1"/>
<text x="-2.2" y="1.3" size="1.016" layer="25" font="vector">&gt;NAME</text>
</package>
</packages>
</library>
<library name="transistor-npn">
<description>&lt;b&gt;NPN Transistors&lt;/b&gt;&lt;p&gt;
&lt;author&gt;Created by librarian@cadsoft.de&lt;/author&gt;</description>
<packages>
<package name="SOT23">
<description>&lt;b&gt;SOT-23&lt;/b&gt;</description>
<wire x1="1.4224" y1="0.6604" x2="1.4224" y2="-0.6604" width="0.1524" layer="51"/>
<wire x1="1.4224" y1="-0.6604" x2="-1.4224" y2="-0.6604" width="0.1524" layer="51"/>
<wire x1="-1.4224" y1="-0.6604" x2="-1.4224" y2="0.6604" width="0.1524" layer="51"/>
<wire x1="-1.4224" y1="0.6604" x2="1.4224" y2="0.6604" width="0.1524" layer="51"/>
<smd name="3" x="0" y="1.1" dx="1" dy="1.4" layer="1"/>
<smd name="2" x="0.95" y="-1.1" dx="1" dy="1.4" layer="1"/>
<smd name="1" x="-0.95" y="-1.1" dx="1" dy="1.4" layer="1"/>
<text x="-1.905" y="1.905" size="1.27" layer="25">&gt;NAME</text>
<text x="-1.905" y="-3.175" size="1.27" layer="27">&gt;VALUE</text>
<rectangle x1="-0.2286" y1="0.7112" x2="0.2286" y2="1.2954" layer="51"/>
<rectangle x1="0.7112" y1="-1.2954" x2="1.1684" y2="-0.7112" layer="51"/>
<rectangle x1="-1.1684" y1="-1.2954" x2="-0.7112" y2="-0.7112" layer="51"/>
</package>
</packages>
</library>
<library name="transistor-pnp">
<description>&lt;b&gt;PNP Transistors&lt;/b&gt;&lt;p&gt;
&lt;author&gt;Created by librarian@cadsoft.de&lt;/author&gt;</description>
<packages>
<package name="SOT23-BEC">
<description>&lt;b&gt;TO-236&lt;/b&gt; ITT Intermetall</description>
<wire x1="1.4224" y1="0.6604" x2="1.4224" y2="-0.6604" width="0.127" layer="51"/>
<wire x1="1.4224" y1="-0.6604" x2="-1.4224" y2="-0.6604" width="0.127" layer="51"/>
<wire x1="-1.4224" y1="-0.6604" x2="-1.4224" y2="0.6604" width="0.127" layer="51"/>
<wire x1="-1.4224" y1="0.6604" x2="1.4224" y2="0.6604" width="0.127" layer="51"/>
<smd name="C" x="0" y="1.1" dx="1" dy="1.4" layer="1"/>
<smd name="E" x="0.95" y="-1.1" dx="1" dy="1.4" layer="1"/>
<smd name="B" x="-0.95" y="-1.1" dx="1" dy="1.4" layer="1"/>
<text x="-1.905" y="1.905" size="1.27" layer="25">&gt;NAME</text>
<text x="-1.905" y="-3.175" size="1.27" layer="27">&gt;VALUE</text>
<rectangle x1="-0.2286" y1="0.7112" x2="0.2286" y2="1.2954" layer="51"/>
<rectangle x1="0.7112" y1="-1.2954" x2="1.1684" y2="-0.7112" layer="51"/>
<rectangle x1="-1.1684" y1="-1.2954" x2="-0.7112" y2="-0.7112" layer="51"/>
</package>
</packages>
</library>
</libraries>
<attributes>
</attributes>
<variantdefs>
</variantdefs>
<classes>
<class number="0" name="default" width="0" drill="0">
</class>
</classes>
<designrules name="default">
<description language="de">&lt;b&gt;EAGLE Design Rules&lt;/b&gt;
&lt;p&gt;
Die Standard-Design-Rules sind so gewählt, dass sie für 
die meisten Anwendungen passen. Sollte ihre Platine 
besondere Anforderungen haben, treffen Sie die erforderlichen
Einstellungen hier und speichern die Design Rules unter 
einem neuen Namen ab.</description>
<description language="en">&lt;b&gt;EAGLE Design Rules&lt;/b&gt;
&lt;p&gt;
The default Design Rules have been set to cover
a wide range of applications. Your particular design
may have different requirements, so please make the
necessary adjustments and save your customized
design rules under a new name.</description>
<param name="layerSetup" value="(1*16)"/>
<param name="mtCopper" value="0.035mm 0.035mm 0.035mm 0.035mm 0.035mm 0.035mm 0.035mm 0.035mm 0.035mm 0.035mm 0.035mm 0.035mm 0.035mm 0.035mm 0.035mm 0.035mm"/>
<param name="mtIsolate" value="1.5mm 0.15mm 0.2mm 0.15mm 0.2mm 0.15mm 0.2mm 0.15mm 0.2mm 0.15mm 0.2mm 0.15mm 0.2mm 0.15mm 0.2mm"/>
<param name="mdWireWire" value="8mil"/>
<param name="mdWirePad" value="8mil"/>
<param name="mdWireVia" value="8mil"/>
<param name="mdPadPad" value="8mil"/>
<param name="mdPadVia" value="8mil"/>
<param name="mdViaVia" value="8mil"/>
<param name="mdSmdPad" value="8mil"/>
<param name="mdSmdVia" value="8mil"/>
<param name="mdSmdSmd" value="8mil"/>
<param name="mdViaViaSameLayer" value="8mil"/>
<param name="mnLayersViaInSmd" value="2"/>
<param name="mdCopperDimension" value="40mil"/>
<param name="mdDrill" value="8mil"/>
<param name="mdSmdStop" value="0mil"/>
<param name="msWidth" value="10mil"/>
<param name="msDrill" value="24mil"/>
<param name="msMicroVia" value="9.99mm"/>
<param name="msBlindViaRatio" value="0.5"/>
<param name="rvPadTop" value="0.25"/>
<param name="rvPadInner" value="0.25"/>
<param name="rvPadBottom" value="0.25"/>
<param name="rvViaOuter" value="0.25"/>
<param name="rvViaInner" value="0.25"/>
<param name="rvMicroViaOuter" value="0.25"/>
<param name="rvMicroViaInner" value="0.25"/>
<param name="rlMinPadTop" value="10mil"/>
<param name="rlMaxPadTop" value="20mil"/>
<param name="rlMinPadInner" value="10mil"/>
<param name="rlMaxPadInner" value="20mil"/>
<param name="rlMinPadBottom" value="10mil"/>
<param name="rlMaxPadBottom" value="20mil"/>
<param name="rlMinViaOuter" value="8mil"/>
<param name="rlMaxViaOuter" value="20mil"/>
<param name="rlMinViaInner" value="8mil"/>
<param name="rlMaxViaInner" value="20mil"/>
<param name="rlMinMicroViaOuter" value="4mil"/>
<param name="rlMaxMicroViaOuter" value="20mil"/>
<param name="rlMinMicroViaInner" value="4mil"/>
<param name="rlMaxMicroViaInner" value="20mil"/>
<param name="psTop" value="-1"/>
<param name="psBottom" value="-1"/>
<param name="psFirst" value="-1"/>
<param name="psElongationLong" value="100"/>
<param name="psElongationOffset" value="100"/>
<param name="mvStopFrame" value="1"/>
<param name="mvCreamFrame" value="0"/>
<param name="mlMinStopFrame" value="4mil"/>
<param name="mlMaxStopFrame" value="4mil"/>
<param name="mlMinCreamFrame" value="0mil"/>
<param name="mlMaxCreamFrame" value="0mil"/>
<param name="mlViaStopLimit" value="0mil"/>
<param name="srRoundness" value="0"/>
<param name="srMinRoundness" value="0mil"/>
<param name="srMaxRoundness" value="0mil"/>
<param name="slThermalIsolate" value="10mil"/>
<param name="slThermalsForVias" value="0"/>
<param name="dpMaxLengthDifference" value="10mm"/>
<param name="dpGapFactor" value="2.5"/>
<param name="checkGrid" value="0"/>
<param name="checkAngle" value="0"/>
<param name="checkFont" value="1"/>
<param name="checkRestrict" value="1"/>
<param name="useDiameter" value="13"/>
<param name="maxErrors" value="50"/>
</designrules>
<autorouter>
<pass name="Default">
<param name="RoutingGrid" value="50mil"/>
<param name="tpViaShape" value="round"/>
<param name="PrefDir.1" value="|"/>
<param name="PrefDir.2" value="0"/>
<param name="PrefDir.3" value="0"/>
<param name="PrefDir.4" value="0"/>
<param name="PrefDir.5" value="0"/>
<param name="PrefDir.6" value="0"/>
<param name="PrefDir.7" value="0"/>
<param name="PrefDir.8" value="0"/>
<param name="PrefDir.9" value="0"/>
<param name="PrefDir.10" value="0"/>
<param name="PrefDir.11" value="0"/>
<param name="PrefDir.12" value="0"/>
<param name="PrefDir.13" value="0"/>
<param name="PrefDir.14" value="0"/>
<param name="PrefDir.15" value="0"/>
<param name="PrefDir.16" value="-"/>
<param name="cfVia" value="8"/>
<param name="cfNonPref" value="5"/>
<param name="cfChangeDir" value="2"/>
<param name="cfOrthStep" value="2"/>
<param name="cfDiagStep" value="3"/>
<param name="cfExtdStep" value="0"/>
<param name="cfBonusStep" value="1"/>
<param name="cfMalusStep" value="1"/>
<param name="cfPadImpact" value="4"/>
<param name="cfSmdImpact" value="4"/>
<param name="cfBusImpact" value="0"/>
<param name="cfHugging" value="3"/>
<param name="cfAvoid" value="4"/>
<param name="cfPolygon" value="10"/>
<param name="cfBase.1" value="0"/>
<param name="cfBase.2" value="1"/>
<param name="cfBase.3" value="1"/>
<param name="cfBase.4" value="1"/>
<param name="cfBase.5" value="1"/>
<param name="cfBase.6" value="1"/>
<param name="cfBase.7" value="1"/>
<param name="cfBase.8" value="1"/>
<param name="cfBase.9" value="1"/>
<param name="cfBase.10" value="1"/>
<param name="cfBase.11" value="1"/>
<param name="cfBase.12" value="1"/>
<param name="cfBase.13" value="1"/>
<param name="cfBase.14" value="1"/>
<param name="cfBase.15" value="1"/>
<param name="cfBase.16" value="0"/>
<param name="mnVias" value="20"/>
<param name="mnSegments" value="9999"/>
<param name="mnExtdSteps" value="9999"/>
<param name="mnRipupLevel" value="10"/>
<param name="mnRipupSteps" value="100"/>
<param name="mnRipupTotal" value="100"/>
</pass>
<pass name="Follow-me" refer="Default" active="yes">
</pass>
<pass name="Busses" refer="Default" active="yes">
<param name="cfNonPref" value="4"/>
<param name="cfBusImpact" value="4"/>
<param name="cfHugging" value="0"/>
<param name="mnVias" value="0"/>
</pass>
<pass name="Route" refer="Default" active="yes">
</pass>
<pass name="Optimize1" refer="Default" active="yes">
<param name="cfVia" value="99"/>
<param name="cfExtdStep" value="10"/>
<param name="cfHugging" value="1"/>
<param name="mnExtdSteps" value="1"/>
<param name="mnRipupLevel" value="0"/>
</pass>
<pass name="Optimize2" refer="Optimize1" active="yes">
<param name="cfNonPref" value="0"/>
<param name="cfChangeDir" value="6"/>
<param name="cfExtdStep" value="0"/>
<param name="cfBonusStep" value="2"/>
<param name="cfMalusStep" value="2"/>
<param name="cfPadImpact" value="2"/>
<param name="cfSmdImpact" value="2"/>
<param name="cfHugging" value="0"/>
</pass>
<pass name="Optimize3" refer="Optimize2" active="yes">
<param name="cfChangeDir" value="8"/>
<param name="cfPadImpact" value="0"/>
<param name="cfSmdImpact" value="0"/>
</pass>
<pass name="Optimize4" refer="Optimize3" active="yes">
<param name="cfChangeDir" value="25"/>
</pass>
</autorouter>
<elements>
<element name="C1" library="rlc-jqi" package="0603" value="10uF" x="17.49425" y="17.0815"/>
<element name="C10" library="rlc-jqi" package="0603" value="10uF" x="23.65375" y="16.92275" rot="R180"/>
<element name="C13" library="rlc-jqi" package="0603" value="0.1uF" x="7.0485" y="31.8135" rot="R180"/>
<element name="C14" library="rlc-jqi" package="0603" value="0.1uF" x="23.749" y="34.70275" rot="R270"/>
<element name="C18" library="rlc-jqi" package="0603" value="10uF" x="44.54525" y="50.927"/>
<element name="C19" library="rlc-jqi" package="0603" value="10uF" x="35.8775" y="44.1325" rot="R180"/>
<element name="C3" library="rlc-jqi" package="0603" value="1pF" x="40.16375" y="51.59375"/>
<element name="C4" library="rlc-jqi" package="0603" value="0.1uF" x="16.51" y="43.815" rot="R180"/>
<element name="C5" library="rlc-jqi" package="0603" value="0.1uF" x="44.54525" y="49.657"/>
<element name="D2" library="diode" package="SOT23" value="7V" x="13.87475" y="28.956" rot="R90"/>
<element name="D3" library="diode" package="SOT23" value="7V" x="19.3675" y="21.0185" rot="R180"/>
<element name="D4" library="diode" package="SOT23" value="7V" x="19.08175" y="32.893" rot="R90"/>
<element name="D5" library="diode" package="SOT23" value="7V" x="7.0485" y="29.2735" rot="R270"/>
<element name="D7" library="diode" package="SMB" value="" x="10.2235" y="34.671" rot="R180"/>
<element name="D8" library="diode" package="SMB" value="" x="19.46275" y="26.82875" rot="R270"/>
<element name="IC3" library="linear" package="DPACK_3" value="MC78M05ABDT" x="10.38225" y="21.6535" rot="R180"/>
<element name="IC4" library="linear" package="DPACK_3" value="MC79M05BDTG" x="25.93975" y="27.20975" rot="R180"/>
<element name="OUT_AC" library="connector-jqi" package="BNC90" value="BNC-H" x="8.89" y="63.5" rot="R90">
<attribute name="DIGIKEY" value="A32260-ND" x="8.89" y="63.5" size="1.778" layer="27" rot="R90" display="off"/>
</element>
<element name="R3" library="rlc-jqi" package="1206" value="50k" x="40.005" y="50.00625"/>
<element name="R4" library="rlc-jqi" package="1206" value="0" x="29.68625" y="47.14875"/>
<element name="SV1" library="connector-jqi" package="MA03-1" value="" x="32.54375" y="8.41375" rot="R270">
<attribute name="OC_FARNELL" value="unknown" x="32.54375" y="8.41375" size="1.778" layer="27" rot="R270" display="off"/>
<attribute name="MPN" value="" x="32.54375" y="8.41375" size="1.778" layer="27" rot="R270" display="off"/>
<attribute name="MF" value="" x="32.54375" y="8.41375" size="1.778" layer="27" rot="R270" display="off"/>
<attribute name="OC_NEWARK" value="unknown" x="32.54375" y="8.41375" size="1.778" layer="27" rot="R270" display="off"/>
</element>
<element name="POW_IN1" library="connector-jqi" package="MA03-1" value="" x="14.2875" y="81.75625" rot="R270">
<attribute name="OC_FARNELL" value="unknown" x="21.59" y="81.75625" size="1.778" layer="27" rot="R270" display="off"/>
<attribute name="MPN" value="" x="21.59" y="81.75625" size="1.778" layer="27" rot="R270" display="off"/>
<attribute name="MF" value="" x="21.59" y="81.75625" size="1.778" layer="27" rot="R270" display="off"/>
<attribute name="OC_NEWARK" value="unknown" x="21.59" y="81.75625" size="1.778" layer="27" rot="R270" display="off"/>
</element>
<element name="C2" library="rlc-jqi" package="0603" value="10uF" x="34.4805" y="78.6765" rot="R270"/>
<element name="C6" library="rlc-jqi" package="0603" value="0.1uF" x="36.068" y="78.6765" rot="R270"/>
<element name="C7" library="rlc-jqi" package="0603" value="10uF" x="34.6075" y="84.86775" rot="R90"/>
<element name="C8" library="rlc-jqi" package="0603" value="0.1uF" x="36.03625" y="84.86775" rot="R90"/>
<element name="D9" library="diode" package="SOT23" value="40V" x="39.02075" y="78.232"/>
<element name="D10" library="diode" package="SOT23" value="40V" x="39.0525" y="86.2965"/>
<element name="C9" library="rlc-jqi" package="0603" value="0.1uF" x="49.53" y="74.6125" rot="R90"/>
<element name="C20" library="rlc-jqi" package="0603" value="10uF" x="48.10125" y="74.6125" rot="R90"/>
<element name="R15" library="rlc-jqi" package="1206" value="1k" x="43.434" y="79.34325"/>
<element name="C12" library="rlc-jqi" package="0603" value="0.1uF" x="48.895" y="16.98625" rot="R90"/>
<element name="C15" library="rlc-jqi" package="0603" value="10uF" x="47.625" y="17.04975" rot="R90"/>
<element name="R2" library="rlc-jqi" package="1206" value="1k" x="43.33875" y="83.8835" rot="R180"/>
<element name="R5" library="rlc-jqi" package="1206" value="0" x="33.909" y="49.4665"/>
<element name="R6" library="rlc-jqi" package="1206" value="0" x="16.98625" y="48.5775" rot="R270"/>
<element name="C16" library="rlc-jqi" package="0603" value="0.1uF" x="24.765" y="50.64125" rot="R90"/>
<element name="C17" library="rlc-jqi" package="0603" value="10uF" x="26.19375" y="50.64125" rot="R90"/>
<element name="C21" library="rlc-jqi" package="0603" value="0.1uF" x="35.78225" y="45.56125" rot="R180"/>
<element name="C22" library="rlc-jqi" package="0603" value="10uF" x="16.41475" y="45.085" rot="R180"/>
<element name="R8" library="rlc-jqi" package="1206" value="20k" x="23.33625" y="42.70375"/>
<element name="R9" library="rlc-jqi" package="1206" value="1k" x="28.5115" y="42.6085"/>
<element name="C23" library="rlc-jqi" package="0603" value="1pF" x="22.70125" y="40.48125" rot="R180"/>
<element name="R10" library="rlc-jqi" package="1206" value="50" x="18.923" y="58.64225" rot="R270"/>
<element name="C24" library="rlc-jqi" package="0603" value="0.1uF" x="33.9725" y="47.14875"/>
<element name="C25" library="rlc-jqi" package="0603" value="0.1uF" x="19.01825" y="62.611" rot="R270"/>
<element name="IC5" library="opamp-jqi" package="SO08" value="" x="41.275" y="45.72" rot="R180"/>
<element name="IC1" library="opamp-jqi" package="SO08" value="" x="22.225" y="45.72" rot="R180"/>
<element name="D1" library="brian_lbr" package="SOD-923" value="1SS427" x="49.8475" y="45.085" rot="R180"/>
<element name="D6" library="brian_lbr" package="SOD-923" value="1SS427" x="49.8475" y="46.355"/>
<element name="C11" library="jqi_passives" package="C_MLCC_1206" value="" x="29.21" y="78.105" rot="R270"/>
<element name="C26" library="jqi_passives" package="C_MLCC_1206" value="" x="31.75" y="85.725" rot="R270"/>
<element name="C27" library="jqi_passives" package="C_MLCC_1206" value="" x="29.21" y="85.725" rot="R270"/>
<element name="C28" library="jqi_passives" package="C_MLCC_1206" value="" x="31.75" y="78.105" rot="R270"/>
<element name="C29" library="jqi_passives" package="C_MLCC_1206" value="" x="44.7675" y="69.5325" rot="R180"/>
<element name="C30" library="jqi_passives" package="C_MLCC_1206" value="" x="44.7675" y="72.0725" rot="R180"/>
<element name="C31" library="jqi_passives" package="C_MLCC_1206" value="" x="52.07" y="18.415" rot="R180"/>
<element name="C32" library="jqi_passives" package="C_MLCC_1206" value="" x="52.07" y="20.955" rot="R180"/>
<element name="D11" library="diode" package="SMB" value="" x="23.495" y="79.375" rot="R180"/>
<element name="D12" library="diode" package="SMB" value="" x="23.495" y="84.455"/>
<element name="D13" library="diode" package="SMB" value="" x="17.145" y="12.065" rot="R270"/>
<element name="D14" library="diode" package="SMB" value="" x="22.86" y="12.065" rot="R90"/>
<element name="U$1" library="brian_lbr" package="S3590" value="S3590" x="42.545" y="69.215" rot="MR180"/>
<element name="U$2" library="brian_lbr" package="S3590" value="S3590" x="42.545" y="22.225" rot="MR180"/>
<element name="Q1" library="transistor-npn" package="SOT23" value="BC848SMD" x="46.6725" y="33.655" rot="R270"/>
<element name="Q2" library="transistor-npn" package="SOT23" value="BC848SMD" x="46.6725" y="40.64" rot="R270"/>
<element name="R1" library="rlc-jqi" package="1206" value="7k" x="52.3875" y="60.6425" rot="R270"/>
<element name="R7" library="rlc-jqi" package="1206" value="100" x="51.1175" y="56.8325"/>
<element name="R11" library="rlc-jqi" package="1206" value="7k" x="43.4975" y="33.655" rot="R270"/>
<element name="R12" library="rlc-jqi" package="1206" value="100" x="44.7675" y="37.465" rot="R180"/>
<element name="Q3" library="transistor-pnp" package="SOT23-BEC" value="BC856BSMD" x="48.895" y="53.6575" rot="R90"/>
<element name="Q4" library="transistor-pnp" package="SOT23-BEC" value="BC856BSMD" x="48.895" y="60.325" rot="R90"/>
</elements>
<signals>
<signal name="GND">
<contactref element="OUT_AC" pad="2"/>
<contactref element="C4" pad="2"/>
<contactref element="C19" pad="2"/>
<contactref element="C5" pad="2"/>
<contactref element="C18" pad="2"/>
<contactref element="C1" pad="2"/>
<contactref element="C10" pad="1"/>
<contactref element="IC3" pad="4"/>
<contactref element="IC4" pad="1"/>
<contactref element="C14" pad="1"/>
<contactref element="C13" pad="2"/>
<contactref element="D3" pad="3"/>
<contactref element="D2" pad="1"/>
<contactref element="D4" pad="3"/>
<contactref element="D5" pad="1"/>
<polygon width="0.4064" layer="16" isolate="0.508">
<vertex x="0" y="96.52"/>
<vertex x="0" y="0"/>
<vertex x="59.69" y="0"/>
<vertex x="59.69" y="96.52"/>
</polygon>
<polygon width="0.4064" layer="1" isolate="0.508" rank="2">
<vertex x="0" y="96.2025"/>
<vertex x="0" y="0"/>
<vertex x="59.69" y="0.635"/>
<vertex x="59.69" y="97.155"/>
</polygon>
<contactref element="SV1" pad="2"/>
<contactref element="POW_IN1" pad="2"/>
<contactref element="C2" pad="2"/>
<contactref element="C6" pad="2"/>
<contactref element="C8" pad="2"/>
<contactref element="C7" pad="2"/>
<contactref element="D9" pad="1"/>
<contactref element="D10" pad="3"/>
<contactref element="C9" pad="2"/>
<contactref element="C16" pad="2"/>
<contactref element="C17" pad="2"/>
<contactref element="C21" pad="2"/>
<contactref element="C22" pad="2"/>
<contactref element="R9" pad="2"/>
<contactref element="C12" pad="1"/>
<contactref element="C15" pad="1"/>
<via x="30.63875" y="89.05875" extent="1-16" drill="0.8"/>
<via x="21.3995" y="57.30875" extent="1-16" drill="0.8"/>
<via x="16.1925" y="26.4795" extent="1-16" drill="0.8"/>
<via x="4.03225" y="31.33725" extent="1-16" drill="0.8"/>
<via x="5.61975" y="19.1135" extent="1-16" drill="0.8"/>
<via x="19.52625" y="42.545" extent="1-16" drill="0.8"/>
<wire x1="5.9485" y1="30.2235" x2="5.9485" y2="31.881" width="0.4064" layer="1"/>
<wire x1="5.9485" y1="31.881" x2="6.1985" y2="31.8135" width="0.4064" layer="1"/>
<contactref element="C20" pad="2"/>
<via x="33.401" y="82.07375" extent="1-16" drill="0.8"/>
<via x="51.91125" y="45.72" extent="1-16" drill="0.8"/>
<via x="25.273" y="53.24475" extent="1-16" drill="0.8"/>
<via x="21.082" y="50.2285" extent="1-16" drill="0.8"/>
<via x="16.98625" y="6.82625" extent="1-16" drill="0.8"/>
<via x="43.65625" y="41.87825" extent="1-16" drill="0.8"/>
<via x="13.81125" y="44.45" extent="1-16" drill="0.8"/>
<via x="16.03375" y="33.02" extent="1-16" drill="0.8"/>
<via x="11.33475" y="81.8515" extent="1-16" drill="0.8"/>
<via x="40.92575" y="88.3285" extent="1-16" drill="0.8"/>
<via x="35.3695" y="87.47125" extent="1-16" drill="0.8"/>
<contactref element="IC5" pad="3"/>
<via x="10.287" y="14.44625" extent="1-16" drill="0.8"/>
<via x="14.097" y="58.89625" extent="1-16" drill="0.8"/>
<via x="33.147" y="52.22875" extent="1-16" drill="0.8"/>
<via x="16.9545" y="54.13375" extent="1-16" drill="0.8"/>
<via x="10.287" y="31.27375" extent="1-16" drill="0.8"/>
<contactref element="D1" pad="ANODE"/>
<contactref element="D6" pad="CATHODE"/>
<contactref element="C11" pad="P$2"/>
<contactref element="C28" pad="P$2"/>
<contactref element="C27" pad="P$1"/>
<contactref element="C26" pad="P$1"/>
<contactref element="C32" pad="P$1"/>
<contactref element="C31" pad="P$1"/>
<contactref element="C29" pad="P$2"/>
<contactref element="C30" pad="P$2"/>
<via x="56.007" y="75.72375" extent="1-16" drill="0.8"/>
<via x="30.5435" y="74.77125" extent="1-16" drill="0.8"/>
<via x="36.2585" y="76.04125" extent="1-16" drill="0.8"/>
<via x="29.972" y="31.90875" extent="1-16" drill="0.8"/>
<via x="11.2395" y="62.07125" extent="1-16" drill="0.8"/>
<via x="17.145" y="81.915" extent="1-16" drill="0.8"/>
<via x="20.447" y="17.93875" extent="1-16" drill="0.8"/>
<via x="26.162" y="16.98625" extent="1-16" drill="0.8"/>
<via x="35.3695" y="8.41375" extent="1-16" drill="0.8"/>
<via x="29.6545" y="8.41375" extent="1-16" drill="0.8"/>
<via x="48.7045" y="77.31125" extent="1-16" drill="0.8"/>
<via x="43.942" y="74.45375" extent="1-16" drill="0.8"/>
<via x="43.942" y="67.15125" extent="1-16" drill="0.8"/>
<via x="48.0695" y="14.44625" extent="1-16" drill="0.8"/>
<via x="54.102" y="23.01875" extent="1-16" drill="0.8"/>
<via x="52.832" y="16.35125" extent="1-16" drill="0.8"/>
<via x="21.74875" y="35.8775" extent="1-16" drill="0.8"/>
<via x="29.05125" y="40.3225" extent="1-16" drill="0.8"/>
<via x="33.17875" y="44.7675" extent="1-16" drill="0.8"/>
<contactref element="Q3" pad="B"/>
<contactref element="Q2" pad="1"/>
<via x="46.19625" y="43.78325" extent="1-16" drill="0.8"/>
<via x="52.197" y="52.86375" extent="1-16" drill="0.8"/>
<via x="46.19625" y="47.27575" extent="1-16" drill="0.8"/>
<via x="49.657" y="50.64125" extent="1-16" drill="0.8"/>
<via x="45.87875" y="52.67325" extent="1-16" drill="0.8"/>
<via x="50.32375" y="29.5275" extent="1-16" drill="0.8"/>
<via x="43.6245" y="22.06625" extent="1-16" drill="0.8"/>
<via x="52.832" y="69.37375" extent="1-16" drill="0.8"/>
</signal>
<signal name="+5V">
<contactref element="C4" pad="1"/>
<contactref element="C19" pad="1"/>
<contactref element="IC3" pad="3"/>
<contactref element="C13" pad="1"/>
<contactref element="D5" pad="3"/>
<contactref element="D7" pad="A"/>
<contactref element="C21" pad="1"/>
<contactref element="C22" pad="1"/>
<wire x1="8.10225" y1="26.4535" x2="8.1485" y2="28.19975" width="0.4064" layer="1"/>
<wire x1="8.1485" y1="28.19975" x2="8.1485" y2="29.2735" width="0.4064" layer="1"/>
<wire x1="8.1485" y1="29.2735" x2="8.1485" y2="32.1985" width="0.4064" layer="1"/>
<wire x1="8.1485" y1="32.1985" x2="7.8985" y2="31.8135" width="0.4064" layer="1"/>
<wire x1="7.8985" y1="31.8135" x2="7.8985" y2="34.546" width="0.4064" layer="1"/>
<wire x1="7.8985" y1="34.546" x2="8.0235" y2="34.671" width="0.4064" layer="1"/>
<contactref element="IC5" pad="7"/>
<contactref element="IC1" pad="7"/>
<wire x1="36.83" y1="44.03" x2="36.7275" y2="44.1325" width="0.4064" layer="1"/>
<wire x1="36.7275" y1="44.1325" x2="36.7275" y2="45.466" width="0.4064" layer="1"/>
<wire x1="36.7275" y1="45.466" x2="36.63225" y2="45.56125" width="0.4064" layer="1"/>
<wire x1="36.63225" y1="45.56125" x2="38.51625" y2="45.56125" width="0.4064" layer="1"/>
<wire x1="38.51625" y1="45.56125" x2="38.675" y2="45.72" width="0.4064" layer="1"/>
<wire x1="19.625" y1="45.72" x2="18.415" y2="45.72" width="0.4064" layer="1"/>
<wire x1="18.415" y1="45.72" x2="17.78" y2="45.085" width="0.4064" layer="1"/>
<wire x1="17.78" y1="45.085" x2="17.26475" y2="45.085" width="0.4064" layer="1"/>
<wire x1="8.0235" y1="34.671" x2="8.0235" y2="36.5985" width="0.4064" layer="1"/>
<wire x1="8.0235" y1="36.5985" x2="9.525" y2="38.1" width="0.4064" layer="1"/>
<wire x1="9.525" y1="38.1" x2="17.145" y2="38.1" width="0.4064" layer="1"/>
<wire x1="17.145" y1="38.1" x2="17.145" y2="43.6" width="0.4064" layer="1"/>
<wire x1="17.145" y1="43.6" x2="17.36" y2="43.815" width="0.4064" layer="1"/>
<wire x1="17.36" y1="43.815" x2="17.36" y2="44.98975" width="0.4064" layer="1"/>
<wire x1="17.36" y1="44.98975" x2="17.26475" y2="45.085" width="0.4064" layer="1"/>
<wire x1="36.63225" y1="45.56125" x2="36.63225" y2="41.07725" width="0.4064" layer="1"/>
<wire x1="36.63225" y1="41.07725" x2="33.655" y2="38.1" width="0.4064" layer="1"/>
<wire x1="33.655" y1="38.1" x2="17.145" y2="38.1" width="0.4064" layer="1"/>
</signal>
<signal name="-5V">
<contactref element="C5" pad="1"/>
<contactref element="C18" pad="1"/>
<contactref element="IC4" pad="3"/>
<contactref element="C14" pad="2"/>
<contactref element="D4" pad="1"/>
<contactref element="D8" pad="C"/>
<contactref element="C16" pad="1"/>
<contactref element="C17" pad="1"/>
<wire x1="20.18175" y1="31.943" x2="20.18175" y2="31.23075" width="0.4064" layer="1"/>
<wire x1="20.18175" y1="31.23075" x2="19.4945" y2="30.5435" width="0.4064" layer="1"/>
<wire x1="19.4945" y1="30.5435" x2="19.4945" y2="29.0605" width="0.4064" layer="1"/>
<wire x1="19.4945" y1="29.0605" x2="19.46275" y2="29.02875" width="0.4064" layer="1"/>
<wire x1="20.18175" y1="31.943" x2="23.593" y2="31.943" width="0.4064" layer="1"/>
<wire x1="23.593" y1="31.943" x2="23.65975" y2="32.00975" width="0.4064" layer="1"/>
<contactref element="IC5" pad="4"/>
<contactref element="IC1" pad="4"/>
<wire x1="30.48" y1="47.625" x2="28.575" y2="49.53" width="0.4064" layer="16"/>
<via x="28.575" y="49.53" extent="1-16" drill="0.7874"/>
<wire x1="28.575" y1="49.53" x2="26.455" y2="49.53" width="0.4064" layer="1"/>
<wire x1="26.455" y1="49.53" x2="26.19375" y2="49.79125" width="0.4064" layer="1"/>
<wire x1="26.19375" y1="49.79125" x2="24.765" y2="49.79125" width="0.4064" layer="1"/>
<wire x1="24.765" y1="49.79125" x2="24.765" y2="48.32" width="0.4064" layer="1"/>
<wire x1="24.765" y1="48.32" x2="24.825" y2="48.26" width="0.4064" layer="1"/>
<wire x1="30.48" y1="47.625" x2="31.115" y2="47.625" width="0.4064" layer="16"/>
<wire x1="31.115" y1="47.625" x2="31.75" y2="47.625" width="0.4064" layer="16"/>
<wire x1="31.75" y1="47.625" x2="37.465" y2="53.34" width="0.4064" layer="16"/>
<wire x1="37.465" y1="53.34" x2="43.815" y2="53.34" width="0.4064" layer="16"/>
<via x="43.815" y="53.34" extent="1-16" drill="0.7874"/>
<wire x1="43.815" y1="53.34" x2="43.815" y2="51.04675" width="0.4064" layer="1"/>
<wire x1="43.815" y1="51.04675" x2="43.69525" y2="50.927" width="0.4064" layer="1"/>
<wire x1="43.69525" y1="50.927" x2="43.69525" y2="49.657" width="0.4064" layer="1"/>
<wire x1="43.69525" y1="49.657" x2="43.69525" y2="48.43975" width="0.4064" layer="1"/>
<wire x1="43.69525" y1="48.43975" x2="43.875" y2="48.26" width="0.4064" layer="1"/>
<wire x1="23.65975" y1="32.00975" x2="23.65975" y2="33.7635" width="0.4064" layer="1"/>
<wire x1="23.65975" y1="33.7635" x2="23.749" y2="33.85275" width="0.4064" layer="1"/>
<wire x1="23.749" y1="33.85275" x2="24.96275" y2="33.85275" width="0.4064" layer="1"/>
<wire x1="24.96275" y1="33.85275" x2="26.035" y2="33.9725" width="0.4064" layer="1"/>
<via x="26.035" y="33.9725" extent="1-16" drill="0.8"/>
<wire x1="26.035" y1="33.9725" x2="31.115" y2="39.37" width="0.4064" layer="16"/>
<wire x1="31.115" y1="39.37" x2="31.115" y2="47.625" width="0.4064" layer="16"/>
</signal>
<signal name="N$10">
<contactref element="R3" pad="2"/>
<contactref element="C3" pad="2"/>
<contactref element="IC5" pad="2"/>
<contactref element="D1" pad="CATHODE"/>
<contactref element="D6" pad="ANODE"/>
<wire x1="43.875" y1="45.72" x2="42.2275" y2="45.72" width="0.4064" layer="1"/>
<wire x1="42.2275" y1="45.72" x2="41.5925" y2="46.355" width="0.4064" layer="1"/>
<wire x1="41.5925" y1="46.355" x2="41.5925" y2="49.84075" width="0.4064" layer="1"/>
<wire x1="41.5925" y1="49.84075" x2="41.427" y2="50.00625" width="0.4064" layer="1"/>
<wire x1="41.427" y1="50.00625" x2="41.427" y2="51.1805" width="0.4064" layer="1"/>
<wire x1="41.427" y1="51.1805" x2="41.01375" y2="51.59375" width="0.4064" layer="1"/>
<contactref element="Q2" pad="3"/>
<contactref element="Q1" pad="3"/>
<contactref element="Q3" pad="C"/>
<contactref element="Q4" pad="C"/>
<wire x1="47.7725" y1="33.655" x2="47.7725" y2="40.64" width="0.4064" layer="1"/>
<wire x1="47.795" y1="60.325" x2="47.795" y2="53.6575" width="0.4064" layer="1"/>
<wire x1="47.795" y1="53.6575" x2="47.795" y2="45.72" width="0.4064" layer="1"/>
<wire x1="47.795" y1="45.72" x2="47.795" y2="40.6625" width="0.4064" layer="1"/>
<wire x1="47.795" y1="40.6625" x2="47.7725" y2="40.64" width="0.4064" layer="1"/>
<wire x1="43.875" y1="45.72" x2="47.795" y2="45.72" width="0.4064" layer="1"/>
<wire x1="47.795" y1="45.72" x2="49.2125" y2="45.72" width="0.4064" layer="1"/>
<wire x1="49.2125" y1="45.72" x2="49.2125" y2="46.1645" width="0.4064" layer="1"/>
<wire x1="49.2125" y1="46.1645" x2="49.403" y2="46.355" width="0.4064" layer="1"/>
<wire x1="49.403" y1="45.085" x2="49.2125" y2="45.2755" width="0.4064" layer="1"/>
<wire x1="49.2125" y1="45.2755" x2="49.2125" y2="45.72" width="0.4064" layer="1"/>
</signal>
<signal name="N$11">
<contactref element="C3" pad="1"/>
<contactref element="R3" pad="1"/>
<contactref element="C24" pad="2"/>
<contactref element="IC5" pad="6"/>
<wire x1="39.31375" y1="51.59375" x2="38.583" y2="50.863" width="0.4064" layer="1"/>
<wire x1="38.583" y1="50.863" x2="38.583" y2="50.00625" width="0.4064" layer="1"/>
<wire x1="38.675" y1="46.99" x2="37.465" y2="46.99" width="0.4064" layer="1"/>
<wire x1="37.465" y1="46.99" x2="34.98125" y2="46.99" width="0.4064" layer="1"/>
<wire x1="34.98125" y1="46.99" x2="34.8225" y2="47.14875" width="0.4064" layer="1"/>
<wire x1="38.583" y1="50.00625" x2="37.30625" y2="50.00625" width="0.4064" layer="1"/>
<wire x1="37.30625" y1="50.00625" x2="36.83" y2="49.53" width="0.4064" layer="1"/>
<wire x1="36.83" y1="49.53" x2="36.83" y2="47.625" width="0.4064" layer="1"/>
<wire x1="36.83" y1="47.625" x2="37.465" y2="46.99" width="0.4064" layer="1"/>
<contactref element="R5" pad="2"/>
<wire x1="36.83" y1="49.53" x2="35.3945" y2="49.53" width="0.4064" layer="1"/>
<wire x1="35.3945" y1="49.53" x2="35.331" y2="49.4665" width="0.4064" layer="1"/>
</signal>
<signal name="N$1">
<contactref element="IC3" pad="1"/>
<contactref element="C1" pad="1"/>
<contactref element="D2" pad="3"/>
<contactref element="D7" pad="C"/>
<wire x1="12.4235" y1="34.671" x2="12.896615625" y2="35.665546875" width="0.4064" layer="1"/>
<wire x1="12.896615625" y1="35.665546875" x2="13.1835" y2="35.306" width="0.4064" layer="1"/>
<wire x1="12.77475" y1="28.956" x2="12.896615625" y2="30.226" width="0.4064" layer="1"/>
<wire x1="12.896615625" y1="30.226" x2="12.896615625" y2="35.665546875" width="0.4064" layer="1"/>
<contactref element="D13" pad="C"/>
<wire x1="17.145" y1="14.265" x2="17.145" y2="15.24" width="0.4064" layer="1"/>
<wire x1="17.145" y1="15.24" x2="16.51" y2="15.875" width="0.4064" layer="1"/>
<wire x1="16.51" y1="15.875" x2="16.51" y2="16.94725" width="0.4064" layer="1"/>
<wire x1="16.51" y1="16.94725" x2="16.64425" y2="17.0815" width="0.4064" layer="1"/>
<wire x1="16.64425" y1="17.0815" x2="16.5735" y2="17.0815" width="0.4064" layer="1"/>
<wire x1="16.5735" y1="17.0815" x2="14.605" y2="19.05" width="0.4064" layer="1"/>
<wire x1="14.605" y1="19.05" x2="14.605" y2="24.51075" width="0.4064" layer="1"/>
<wire x1="14.605" y1="24.51075" x2="12.66225" y2="26.4535" width="0.4064" layer="1"/>
<wire x1="12.66225" y1="26.4535" x2="12.77475" y2="26.4535" width="0.4064" layer="1"/>
<wire x1="12.77475" y1="26.4535" x2="12.77475" y2="28.956" width="0.4064" layer="1"/>
</signal>
<signal name="S$5">
</signal>
<signal name="N$2">
<contactref element="IC4" pad="4"/>
<contactref element="C10" pad="2"/>
<contactref element="D3" pad="1"/>
<contactref element="D8" pad="A"/>
<wire x1="19.46275" y1="24.62875" x2="20.32" y2="24.62875" width="0.4064" layer="1"/>
<wire x1="20.32" y1="24.62875" x2="25.85875" y2="24.62875" width="0.4064" layer="1"/>
<wire x1="25.85875" y1="24.62875" x2="25.93975" y2="24.70975" width="0.4064" layer="1"/>
<contactref element="D14" pad="A"/>
<wire x1="22.86" y1="14.265" x2="22.86" y2="16.8665" width="0.4064" layer="1"/>
<wire x1="22.86" y1="16.8665" x2="22.80375" y2="16.92275" width="0.4064" layer="1"/>
<wire x1="22.80375" y1="16.92275" x2="22.80375" y2="19.63225" width="0.4064" layer="1"/>
<wire x1="22.80375" y1="19.63225" x2="20.3175" y2="22.1185" width="0.4064" layer="1"/>
<wire x1="20.3175" y1="22.1185" x2="20.3175" y2="24.62625" width="0.4064" layer="1"/>
<wire x1="20.3175" y1="24.62625" x2="20.32" y2="24.62875" width="0.4064" layer="1"/>
</signal>
<signal name="S$1">
</signal>
<signal name="S$2">
</signal>
<signal name="N$22">
<contactref element="C9" pad="1"/>
<contactref element="C20" pad="1"/>
<contactref element="R15" pad="2"/>
<contactref element="C29" pad="P$1"/>
<contactref element="C30" pad="P$1"/>
<contactref element="U$1" pad="CATHODE"/>
<wire x1="44.856" y1="79.34325" x2="46.3175" y2="77.88175" width="0.4064" layer="1"/>
<wire x1="46.3175" y1="77.88175" x2="46.3175" y2="72.0725" width="0.4064" layer="1"/>
<wire x1="46.3175" y1="72.0725" x2="46.3175" y2="69.5325" width="0.4064" layer="1"/>
<polygon width="0.127" layer="1" thermals="no">
<vertex x="46.355" y="72.39"/>
<vertex x="47.625" y="73.66"/>
<vertex x="49.53" y="73.66"/>
<vertex x="49.53" y="70.485"/>
<vertex x="47.625" y="70.485"/>
<vertex x="46.355" y="69.215"/>
</polygon>
</signal>
<signal name="N$7">
</signal>
<signal name="N$9">
</signal>
<signal name="N$3">
</signal>
<signal name="N$12">
</signal>
<signal name="VCC-">
<contactref element="C7" pad="1"/>
<contactref element="C8" pad="1"/>
<contactref element="D10" pad="1"/>
<contactref element="R2" pad="2"/>
<contactref element="C26" pad="P$2"/>
<contactref element="C27" pad="P$2"/>
<contactref element="D12" pad="A"/>
<wire x1="29.21" y1="84.175" x2="25.975" y2="84.175" width="0.4064" layer="1"/>
<wire x1="25.975" y1="84.175" x2="25.695" y2="84.455" width="0.4064" layer="1"/>
<wire x1="29.21" y1="84.175" x2="31.75" y2="84.175" width="0.4064" layer="1"/>
<wire x1="31.75" y1="84.175" x2="34.45025" y2="84.175" width="0.4064" layer="1"/>
<wire x1="34.45025" y1="84.175" x2="34.6075" y2="84.01775" width="0.4064" layer="1"/>
<wire x1="34.6075" y1="84.01775" x2="36.03625" y2="84.01775" width="0.4064" layer="1"/>
<wire x1="36.03625" y1="84.01775" x2="36.92375" y2="84.01775" width="0.4064" layer="1"/>
<wire x1="36.92375" y1="84.01775" x2="38.1025" y2="85.1965" width="0.4064" layer="1"/>
<wire x1="38.1025" y1="85.1965" x2="38.1025" y2="84.4525" width="0.4064" layer="1"/>
<wire x1="38.1025" y1="84.4525" x2="38.735" y2="83.82" width="0.4064" layer="1"/>
<wire x1="38.735" y1="83.82" x2="41.85325" y2="83.82" width="0.4064" layer="1"/>
<wire x1="41.85325" y1="83.82" x2="41.91675" y2="83.8835" width="0.4064" layer="1"/>
</signal>
<signal name="VCC+">
<contactref element="R15" pad="1"/>
<contactref element="C6" pad="1"/>
<contactref element="D9" pad="3"/>
<contactref element="C11" pad="P$1"/>
<contactref element="C28" pad="P$1"/>
<contactref element="C2" pad="1"/>
<contactref element="D11" pad="C"/>
<wire x1="29.21" y1="79.655" x2="25.975" y2="79.655" width="0.4064" layer="1"/>
<wire x1="25.975" y1="79.655" x2="25.695" y2="79.375" width="0.4064" layer="1"/>
<wire x1="31.75" y1="79.655" x2="31.47" y2="79.655" width="0.4064" layer="1"/>
<wire x1="31.47" y1="79.655" x2="31.4325" y2="79.6925" width="0.4064" layer="1"/>
<wire x1="29.21" y1="79.655" x2="31.75" y2="79.655" width="0.4064" layer="1"/>
<wire x1="31.75" y1="79.655" x2="34.352" y2="79.655" width="0.4064" layer="1"/>
<wire x1="34.352" y1="79.655" x2="34.4805" y2="79.5265" width="0.4064" layer="1"/>
<wire x1="34.4805" y1="79.5265" x2="36.068" y2="79.5265" width="0.4064" layer="1"/>
<wire x1="36.068" y1="79.5265" x2="38.82625" y2="79.5265" width="0.4064" layer="1"/>
<wire x1="38.82625" y1="79.5265" x2="39.02075" y2="79.332" width="0.4064" layer="1"/>
<wire x1="39.02075" y1="79.332" x2="42.00075" y2="79.332" width="0.4064" layer="1"/>
<wire x1="42.00075" y1="79.332" x2="42.012" y2="79.34325" width="0.4064" layer="1"/>
</signal>
<signal name="N$8">
<contactref element="R4" pad="1"/>
<contactref element="IC1" pad="3"/>
<wire x1="24.825" y1="46.99" x2="28.26425" y2="46.99" width="0.4064" layer="1"/>
<wire x1="28.26425" y1="46.99" x2="28.26425" y2="47.14875" width="0.4064" layer="1"/>
</signal>
<signal name="N$13">
<contactref element="R6" pad="2"/>
<contactref element="R8" pad="1"/>
<contactref element="C23" pad="2"/>
<contactref element="IC1" pad="6"/>
<wire x1="21.85125" y1="40.48125" x2="21.85125" y2="42.64075" width="0.4064" layer="1"/>
<wire x1="21.85125" y1="42.64075" x2="21.91425" y2="42.70375" width="0.4064" layer="1"/>
<wire x1="21.91425" y1="42.70375" x2="21.91425" y2="46.66575" width="0.4064" layer="1"/>
<wire x1="21.91425" y1="46.66575" x2="21.59" y2="46.99" width="0.4064" layer="1"/>
<wire x1="21.59" y1="46.99" x2="19.625" y2="46.99" width="0.4064" layer="1"/>
<wire x1="19.625" y1="46.99" x2="16.98625" y2="46.99" width="0.4064" layer="1"/>
<wire x1="16.98625" y1="46.99" x2="16.98625" y2="47.1555" width="0.4064" layer="1"/>
</signal>
<signal name="N$15">
<contactref element="R6" pad="1"/>
<contactref element="R10" pad="2"/>
<wire x1="16.98625" y1="49.9995" x2="16.98625" y2="51.27625" width="0.4064" layer="1"/>
<wire x1="16.98625" y1="51.27625" x2="19.05" y2="53.34" width="0.4064" layer="1"/>
<wire x1="19.05" y1="53.34" x2="19.05" y2="54.61" width="0.4064" layer="1"/>
<wire x1="19.05" y1="54.61" x2="19.05" y2="55.245" width="0.4064" layer="1"/>
<wire x1="19.05" y1="55.245" x2="19.05" y2="57.09325" width="0.4064" layer="1"/>
<wire x1="19.05" y1="57.09325" x2="18.923" y2="57.22025" width="0.4064" layer="1"/>
<wire x1="19.1135" y1="54.5465" x2="19.05" y2="54.61" width="0.4064" layer="1"/>
<contactref element="R5" pad="1"/>
<wire x1="32.487" y1="49.4665" x2="32.4485" y2="49.4665" width="0.4064" layer="1"/>
<wire x1="32.4485" y1="49.4665" x2="26.67" y2="55.245" width="0.4064" layer="1"/>
<wire x1="26.67" y1="55.245" x2="19.05" y2="55.245" width="0.4064" layer="1"/>
</signal>
<signal name="N$16">
<contactref element="R8" pad="2"/>
<contactref element="R9" pad="1"/>
<contactref element="C23" pad="1"/>
<contactref element="IC1" pad="2"/>
<wire x1="24.75825" y1="42.70375" x2="26.99425" y2="42.70375" width="0.4064" layer="1"/>
<wire x1="26.99425" y1="42.70375" x2="27.0895" y2="42.6085" width="0.4064" layer="1"/>
<wire x1="24.75825" y1="42.70375" x2="24.75825" y2="41.68825" width="0.4064" layer="1"/>
<wire x1="24.75825" y1="41.68825" x2="23.55125" y2="40.48125" width="0.4064" layer="1"/>
<wire x1="24.825" y1="45.72" x2="26.035" y2="45.72" width="0.4064" layer="1"/>
<wire x1="26.035" y1="45.72" x2="26.9875" y2="44.7675" width="0.4064" layer="1"/>
<wire x1="26.9875" y1="44.7675" x2="26.9875" y2="42.7105" width="0.4064" layer="1"/>
<wire x1="26.9875" y1="42.7105" x2="27.0895" y2="42.6085" width="0.4064" layer="1"/>
</signal>
<signal name="N$4">
</signal>
<signal name="N$19">
<contactref element="C12" pad="2"/>
<contactref element="C15" pad="2"/>
<contactref element="R2" pad="1"/>
<contactref element="C32" pad="P$2"/>
<contactref element="C31" pad="P$2"/>
<wire x1="55.88" y1="73.025" x2="55.88" y2="27.305" width="0.4064" layer="1"/>
<wire x1="44.76075" y1="83.8835" x2="45.0215" y2="83.8835" width="0.4064" layer="1"/>
<wire x1="45.0215" y1="83.8835" x2="55.88" y2="73.025" width="0.4064" layer="1"/>
<contactref element="U$2" pad="ANODE"/>
<wire x1="50.52" y1="20.955" x2="50.52" y2="21.945" width="0.4064" layer="1"/>
<wire x1="50.52" y1="21.945" x2="55.88" y2="27.305" width="0.4064" layer="1"/>
<wire x1="50.52" y1="20.955" x2="50.52" y2="18.415" width="0.4064" layer="1"/>
<wire x1="50.52" y1="18.415" x2="49.94125" y2="17.83625" width="0.4064" layer="1"/>
<wire x1="49.94125" y1="17.83625" x2="48.895" y2="17.83625" width="0.4064" layer="1"/>
<wire x1="48.895" y1="17.83625" x2="48.8315" y2="17.89975" width="0.4064" layer="1"/>
<wire x1="48.8315" y1="17.89975" x2="47.625" y2="17.89975" width="0.4064" layer="1"/>
<wire x1="48.8315" y1="17.89975" x2="48.8315" y2="19.1135" width="0.4064" layer="1"/>
<wire x1="48.8315" y1="19.1135" x2="48.26" y2="19.685" width="0.4064" layer="1"/>
<polygon width="0.127" layer="1" thermals="no">
<vertex x="50.4825" y="21.59"/>
<vertex x="50.4825" y="18.0975"/>
<vertex x="46.99" y="18.0975"/>
<vertex x="46.99" y="19.685"/>
<vertex x="48.895" y="21.59"/>
</polygon>
</signal>
<signal name="N$17">
<contactref element="R10" pad="1"/>
<contactref element="C25" pad="2"/>
<wire x1="18.923" y1="60.06425" x2="18.923" y2="61.66575" width="0.4064" layer="1"/>
<wire x1="18.923" y1="61.66575" x2="19.01825" y2="61.761" width="0.4064" layer="1"/>
</signal>
<signal name="N$20">
<contactref element="C25" pad="1"/>
<contactref element="OUT_AC" pad="1"/>
<wire x1="13.97" y1="63.5" x2="16.891" y2="63.5" width="0.4064" layer="16"/>
<via x="16.891" y="63.5" extent="1-16" drill="0.7874"/>
<wire x1="19.01825" y1="63.461" x2="16.93" y2="63.461" width="0.4064" layer="1"/>
<wire x1="16.93" y1="63.461" x2="16.891" y2="63.5" width="0.4064" layer="1"/>
</signal>
<signal name="N$30">
<polygon width="0.127" layer="1" pour="cutout">
<vertex x="7.0485" y="29.11475"/>
<vertex x="4.98475" y="29.11475"/>
<vertex x="4.98475" y="29.43225"/>
<vertex x="7.0485" y="29.43225"/>
</polygon>
<polygon width="0.127" layer="1" pour="cutout">
<vertex x="15.9385" y="28.79725"/>
<vertex x="13.87475" y="28.79725"/>
<vertex x="13.87475" y="29.11475"/>
<vertex x="15.9385" y="29.11475"/>
</polygon>
</signal>
<signal name="N$21">
<polygon width="0.127" layer="1" pour="cutout">
<vertex x="28.2575" y="43.4975"/>
<vertex x="28.8925" y="43.4975"/>
<vertex x="28.8925" y="41.91"/>
<vertex x="28.2575" y="41.91"/>
</polygon>
</signal>
<signal name="N$6">
<contactref element="R4" pad="2"/>
<contactref element="C24" pad="1"/>
<wire x1="31.10825" y1="47.14875" x2="33.1225" y2="47.14875" width="0.4064" layer="1"/>
</signal>
<signal name="N$14">
<polygon width="0.127" layer="1" pour="cutout">
<vertex x="23.1775" y="44.1325"/>
<vertex x="22.5425" y="44.1325"/>
<vertex x="22.5425" y="47.3075"/>
<vertex x="22.225" y="47.3075"/>
<vertex x="22.225" y="47.625"/>
<vertex x="21.2725" y="47.625"/>
<vertex x="21.2725" y="47.9425"/>
<vertex x="21.2725" y="48.895"/>
<vertex x="23.1775" y="48.895"/>
</polygon>
</signal>
<signal name="N$5">
<polygon width="0.127" layer="1" pour="cutout">
<vertex x="40.3225" y="48.5775"/>
<vertex x="40.9575" y="48.5775"/>
<vertex x="40.9575" y="46.0375"/>
<vertex x="41.275" y="46.0375"/>
<vertex x="41.275" y="45.4025"/>
<vertex x="41.5925" y="45.4025"/>
<vertex x="41.5925" y="45.085"/>
<vertex x="42.2275" y="45.085"/>
<vertex x="42.2275" y="44.7675"/>
<vertex x="42.2275" y="43.815"/>
<vertex x="40.3225" y="43.815"/>
</polygon>
</signal>
<signal name="N$18">
<polygon width="0.127" layer="1" pour="cutout">
<vertex x="27.94" y="85.09"/>
<vertex x="33.02" y="85.09"/>
<vertex x="33.02" y="86.0425"/>
<vertex x="27.94" y="86.0425"/>
</polygon>
</signal>
<signal name="N$25">
<polygon width="0.127" layer="1" pour="cutout">
<vertex x="28.575" y="78.74"/>
<vertex x="33.02" y="78.74"/>
<vertex x="33.02" y="77.7875"/>
<vertex x="27.94" y="77.7875"/>
<vertex x="27.94" y="78.74"/>
<vertex x="29.845" y="78.74"/>
</polygon>
</signal>
<signal name="N$27">
<polygon width="0.127" layer="1" pour="cutout">
<vertex x="17.78" y="27.6225"/>
<vertex x="17.78" y="26.035"/>
<vertex x="21.2725" y="26.035"/>
<vertex x="21.2725" y="27.6225"/>
</polygon>
</signal>
<signal name="N$28">
<polygon width="0.127" layer="1" pour="cutout">
<vertex x="9.525" y="36.5125"/>
<vertex x="9.525" y="33.02"/>
<vertex x="10.795" y="33.02"/>
<vertex x="10.795" y="36.5125"/>
</polygon>
</signal>
<signal name="N$29">
<contactref element="POW_IN1" pad="3"/>
<contactref element="D11" pad="A"/>
<wire x1="14.2875" y1="79.21625" x2="18.415" y2="79.375" width="0.4064" layer="16"/>
<via x="18.415" y="79.375" extent="1-16" drill="0.8"/>
<wire x1="18.415" y1="79.375" x2="21.295" y2="79.375" width="0.4064" layer="1" curve="6.35966"/>
</signal>
<signal name="N$31">
<contactref element="POW_IN1" pad="1"/>
<contactref element="D12" pad="C"/>
<wire x1="14.2875" y1="84.29625" x2="18.415" y2="84.455" width="0.4064" layer="16"/>
<via x="18.415" y="84.455" extent="1-16" drill="0.8"/>
<wire x1="18.415" y1="84.455" x2="21.295" y2="84.455" width="0.4064" layer="1"/>
</signal>
<signal name="N$33">
<contactref element="SV1" pad="3"/>
<contactref element="D13" pad="A"/>
<wire x1="32.54375" y1="5.87375" x2="28.73375" y2="5.87375" width="0.4064" layer="16"/>
<wire x1="28.73375" y1="5.87375" x2="28.575" y2="5.715" width="0.4064" layer="16"/>
<via x="28.575" y="5.715" extent="1-16" drill="0.8"/>
<wire x1="28.575" y1="5.715" x2="21.295" y2="5.715" width="0.4064" layer="1"/>
<wire x1="21.295" y1="5.715" x2="17.145" y2="9.865" width="0.4064" layer="1"/>
</signal>
<signal name="N$34">
<contactref element="SV1" pad="1"/>
<contactref element="D14" pad="C"/>
<wire x1="32.54375" y1="10.95375" x2="28.575" y2="10.95375" width="0.4064" layer="16"/>
<wire x1="28.575" y1="10.95375" x2="28.575" y2="10.795" width="0.4064" layer="16"/>
<via x="28.575" y="10.795" extent="1-16" drill="0.8"/>
<wire x1="28.575" y1="10.795" x2="27.645" y2="9.865" width="0.4064" layer="1"/>
<wire x1="27.645" y1="9.865" x2="22.86" y2="9.865" width="0.4064" layer="1"/>
</signal>
<signal name="N$26">
<polygon width="0.3048" layer="1" pour="cutout">
<vertex x="21.2725" y="12.7"/>
<vertex x="21.2725" y="11.43"/>
<vertex x="24.4475" y="11.43"/>
<vertex x="24.4475" y="12.7"/>
</polygon>
</signal>
<signal name="N$32">
<polygon width="0.3048" layer="1" pour="cutout">
<vertex x="15.5575" y="12.7"/>
<vertex x="15.5575" y="11.43"/>
<vertex x="18.7325" y="11.43"/>
<vertex x="18.7325" y="12.7"/>
</polygon>
</signal>
<signal name="N$35">
<polygon width="0.3048" layer="1" pour="cutout">
<vertex x="22.86" y="86.0425"/>
<vertex x="24.13" y="86.0425"/>
<vertex x="24.13" y="82.8675"/>
<vertex x="22.86" y="82.8675"/>
</polygon>
</signal>
<signal name="N$36">
<polygon width="0.3048" layer="1" pour="cutout">
<vertex x="22.86" y="80.9625"/>
<vertex x="24.13" y="80.9625"/>
<vertex x="24.13" y="77.7875"/>
<vertex x="22.86" y="77.7875"/>
<vertex x="22.86" y="78.105"/>
</polygon>
</signal>
<signal name="N$23">
<polygon width="0.2032" layer="1" pour="cutout">
<vertex x="45.72" y="73.3425"/>
<vertex x="45.72" y="68.2625"/>
<vertex x="44.45" y="68.2625"/>
<vertex x="44.45" y="73.3425"/>
</polygon>
</signal>
<signal name="N$24">
<polygon width="0.2032" layer="1" pour="cutout">
<vertex x="51.1175" y="21.9075"/>
<vertex x="51.1175" y="17.145"/>
<vertex x="52.3875" y="17.145"/>
<vertex x="52.3875" y="21.9075"/>
<vertex x="52.3875" y="22.225"/>
<vertex x="51.435" y="22.225"/>
</polygon>
</signal>
<signal name="N$37">
<polygon width="0.2032" layer="16" pour="cutout">
<vertex x="48.26" y="63.5"/>
<vertex x="51.435" y="63.5"/>
<vertex x="51.435" y="74.93"/>
<vertex x="45.085" y="74.93"/>
<vertex x="45.085" y="63.5"/>
</polygon>
</signal>
<signal name="N$38">
<polygon width="0.2032" layer="16" pour="cutout">
<vertex x="48.26" y="27.94"/>
<vertex x="51.435" y="27.94"/>
<vertex x="51.435" y="16.51"/>
<vertex x="45.085" y="16.51"/>
<vertex x="45.085" y="27.94"/>
</polygon>
</signal>
<signal name="N$39">
<contactref element="Q1" pad="1"/>
<contactref element="R12" pad="1"/>
<wire x1="45.5725" y1="34.605" x2="46.1895" y2="35.222" width="0.4064" layer="1"/>
<wire x1="46.1895" y1="35.222" x2="46.1895" y2="37.465" width="0.4064" layer="1"/>
</signal>
<signal name="N$40">
<contactref element="Q2" pad="2"/>
<contactref element="R12" pad="2"/>
<contactref element="R11" pad="1"/>
<contactref element="R11" pad="1"/>
<wire x1="43.4975" y1="35.077" x2="43.3455" y2="35.229" width="0.4064" layer="1"/>
<wire x1="43.3455" y1="35.229" x2="43.3455" y2="37.465" width="0.4064" layer="1"/>
<wire x1="43.3455" y1="37.465" x2="43.3455" y2="38.9005" width="0.4064" layer="1"/>
<wire x1="43.3455" y1="38.9005" x2="44.1325" y2="39.6875" width="0.4064" layer="1"/>
<wire x1="44.1325" y1="39.6875" x2="45.57" y2="39.6875" width="0.4064" layer="1"/>
<wire x1="45.57" y1="39.6875" x2="45.5725" y2="39.69" width="0.4064" layer="1"/>
</signal>
<signal name="N$42">
<contactref element="U$2" pad="CATHODE"/>
<contactref element="Q1" pad="2"/>
<contactref element="R11" pad="2"/>
<wire x1="45.5725" y1="32.705" x2="43.9695" y2="32.705" width="0.4064" layer="1"/>
<wire x1="43.9695" y1="32.705" x2="43.4975" y2="32.233" width="0.4064" layer="1"/>
<wire x1="48.26" y1="24.765" x2="48.26" y2="30.0175" width="0.4064" layer="1"/>
<wire x1="48.26" y1="30.0175" x2="45.5725" y2="32.705" width="0.4064" layer="1"/>
</signal>
<signal name="N$43">
<contactref element="Q4" pad="B"/>
<contactref element="R7" pad="1"/>
<wire x1="49.995" y1="59.375" x2="49.995" y2="57.132" width="0.4064" layer="1"/>
<wire x1="49.995" y1="57.132" x2="49.6955" y2="56.8325" width="0.4064" layer="1"/>
</signal>
<signal name="N$44">
<contactref element="R7" pad="2"/>
<contactref element="Q3" pad="E"/>
<contactref element="R1" pad="2"/>
<contactref element="R1" pad="2"/>
<wire x1="49.995" y1="54.6075" x2="52.0675" y2="54.6075" width="0.4064" layer="1"/>
<wire x1="52.0675" y1="54.6075" x2="52.705" y2="55.245" width="0.4064" layer="1"/>
<wire x1="52.705" y1="55.245" x2="52.705" y2="56.667" width="0.4064" layer="1"/>
<wire x1="52.705" y1="56.667" x2="52.5395" y2="56.8325" width="0.4064" layer="1"/>
<wire x1="52.5395" y1="56.8325" x2="52.5395" y2="59.0685" width="0.4064" layer="1"/>
<wire x1="52.5395" y1="59.0685" x2="52.3875" y2="59.2205" width="0.4064" layer="1"/>
</signal>
<signal name="N$45">
<contactref element="Q4" pad="E"/>
<contactref element="U$1" pad="ANODE"/>
<contactref element="R1" pad="1"/>
<wire x1="48.26" y1="66.675" x2="48.26" y2="63.01" width="0.4064" layer="1"/>
<wire x1="48.26" y1="63.01" x2="49.995" y2="61.275" width="0.4064" layer="1"/>
<wire x1="49.995" y1="61.275" x2="49.995" y2="61.425" width="0.4064" layer="1"/>
<wire x1="49.995" y1="61.425" x2="50.8" y2="62.23" width="0.4064" layer="1"/>
<wire x1="50.8" y1="62.23" x2="52.222" y2="62.23" width="0.4064" layer="1"/>
<wire x1="52.222" y1="62.23" x2="52.3875" y2="62.0645" width="0.4064" layer="1"/>
</signal>
<signal name="N$41">
<polygon width="0.2032" layer="1" pour="cutout">
<vertex x="48.26" y="52.705"/>
<vertex x="49.2125" y="52.705"/>
<vertex x="49.2125" y="51.7525"/>
<vertex x="48.26" y="51.7525"/>
</polygon>
</signal>
<signal name="N$46">
<polygon width="0.2032" layer="1" pour="cutout">
<vertex x="46.355" y="41.5925"/>
<vertex x="47.3075" y="41.5925"/>
<vertex x="47.3075" y="42.545"/>
<vertex x="46.355" y="42.545"/>
</polygon>
</signal>
<signal name="N$47">
<polygon width="0.2032" layer="1" pour="cutout">
<vertex x="46.99" y="25.7175" curve="-180"/>
<vertex x="49.53" y="23.8125" curve="-180"/>
</polygon>
<polygon width="0.2032" layer="1" pour="cutout">
<vertex x="46.99" y="67.6275" curve="-180"/>
<vertex x="49.53" y="65.7225" curve="-180"/>
</polygon>
</signal>
</signals>
<errors>
<approved hash="1,20,07fb261b210f00ef"/>
<approved hash="19,1,db493f85a098c46e"/>
<approved hash="19,1,23b550978bbbbd43"/>
<approved hash="19,1,244c1aacddf4dab2"/>
<approved hash="19,1,4c1aebdb65cda9d5"/>
<approved hash="19,1,308d5efeebd20119"/>
<approved hash="5,1,7c07aa34f1a3816f"/>
<approved hash="19,1,59e05d290f04c4e2"/>
<approved hash="5,1,6221305b4ef49489"/>
<approved hash="5,1,cecc254974e8c4f3"/>
<approved hash="5,1,ce022d1c7c5bc4f3"/>
<approved hash="19,1,067b85085ec1f317"/>
<approved hash="5,1,1b38eed9e47f2ef3"/>
<approved hash="5,1,cd46ee204d35b9a4"/>
</errors>
</board>
</drawing>
</eagle>
